src/build/tb_fsm.vcd
$date
	Mon Apr 27 21:25:27 2026
$end
$version
	Icarus Verilog
$end
$timescale
	1ps
$end
$scope module tb_fsm $end
$var wire 1 ! load_num2 $end
$var wire 1 " load_num1 $end
$var wire 1 # do_sum $end
$var wire 1 $ clear $end
$var reg 1 % clk $end
$var reg 1 & key_valid $end
$var reg 4 ' key_value [3:0] $end
$var reg 1 ( reset $end
$scope module uut $end
$var wire 1 % clk $end
$var wire 1 & key_valid $end
$var wire 4 ) key_value [3:0] $end
$var wire 1 ( reset $end
$var reg 1 $ clear $end
$var reg 1 # do_sum $end
$var reg 1 " load_num1 $end
$var reg 1 ! load_num2 $end
$var reg 3 * next_state [2:0] $end
$var reg 3 + state [2:0] $end
$upscope $end
$scope task press_key $end
$var reg 4 , key [3:0] $end
$upscope $end
$upscope $end
$enddefinitions $end
$comment Show the parameter values. $end
$dumpall
$end
#0
$dumpvars
bx ,
b0 +
b0 *
b0 )
1(
b0 '
0&
0%
1$
0#
0"
0!
$end
#5000
1%
#10000
0%
#15000
1%
#20000
1$
b1 *
0%
1&
b1 '
b1 )
b1 ,
0(
#25000
1"
0$
b1 +
1%
#30000
0"
0%
0&
#35000
1%
#40000
0%
#45000
1%
#50000
1"
0%
1&
b10 '
b10 )
b10 ,
#55000
1%
#60000
0"
0%
0&
#65000
1%
#70000
0%
#75000
1%
#80000
1"
0%
1&
b11 '
b11 )
b11 ,
#85000
1%
#90000
0"
0%
0&
#95000
1%
#100000
0%
#105000
1%
#110000
1"
b10 *
0%
1&
b1010 '
b1010 )
b1010 ,
#115000
1!
0"
b11 *
b10 +
1%
#120000
0!
b10 *
0%
0&
#125000
1%
#130000
0%
#135000
1%
#140000
1!
0%
1&
b100 '
b100 )
b100 ,
#145000
1%
#150000
0!
0%
0&
#155000
1%
#160000
0%
#165000
1%
#170000
1!
0%
1&
b101 '
b101 )
b101 ,
#175000
1%
#180000
0!
0%
0&
#185000
1%
#190000
0%
#195000
1%
#200000
1!
b11 *
0%
1&
b1010 '
b1010 )
b1010 ,
#205000
1#
0!
b100 *
b11 +
1%
#210000
1#
b100 *
0%
0&
#215000
0#
b100 +
1%
#220000
0%
#225000
1%
#230000
0%
#235000
1%
#240000
0%
#245000
1%
#250000
0%
#255000
1%
#260000
0%
#265000
1%
#270000
0%
#275000
1%
#280000
b0 *
0%
1&
b111 '
b111 )
b111 ,
#285000
1$
b1 *
b0 +
1%
#290000
1$
b0 *
0%
0&
