src/build/tb_top_system.vcd
$date
	Tue Apr 28 02:11:35 2026
$end
$version
	Icarus Verilog
$end
$timescale
	1ps
$end
$scope module tb_top $end
$var wire 7 ! seg [6:0] $end
$var wire 4 " cols [3:0] $end
$var wire 4 # an [3:0] $end
$var reg 1 $ clk $end
$var reg 1 % reset $end
$var reg 4 & rows [3:0] $end
$scope module uut $end
$var wire 1 $ clk $end
$var wire 1 % reset $end
$var wire 4 ' rows [3:0] $end
$var wire 7 ( seg [6:0] $end
$var wire 4 ) rows_sync [3:0] $end
$var wire 4 * rows_clean [3:0] $end
$var wire 13 + result [12:0] $end
$var wire 12 , num2 [11:0] $end
$var wire 12 - num1 [11:0] $end
$var wire 1 . load_num2 $end
$var wire 1 / load_num1 $end
$var wire 4 0 key_value [3:0] $end
$var wire 1 1 key_valid $end
$var wire 1 2 do_sum $end
$var wire 4 3 cols [3:0] $end
$var wire 1 4 clear $end
$var wire 4 5 an [3:0] $end
$var parameter 32 6 CLK_HZ $end
$scope module deb0 $end
$var wire 1 $ clk $end
$var wire 1 7 noisy_in $end
$var wire 1 % reset $end
$var parameter 32 8 CLK_HZ $end
$var parameter 32 9 CNT_BITS $end
$var parameter 64 : COUNT_MAX $end
$var parameter 32 ; DEBOUNCE_MS $end
$var reg 1 < clean_out $end
$var reg 2 = counter [1:0] $end
$var reg 1 > sync_reg $end
$upscope $end
$scope module deb1 $end
$var wire 1 $ clk $end
$var wire 1 ? noisy_in $end
$var wire 1 % reset $end
$var parameter 32 @ CLK_HZ $end
$var parameter 32 A CNT_BITS $end
$var parameter 64 B COUNT_MAX $end
$var parameter 32 C DEBOUNCE_MS $end
$var reg 1 D clean_out $end
$var reg 2 E counter [1:0] $end
$var reg 1 F sync_reg $end
$upscope $end
$scope module deb2 $end
$var wire 1 $ clk $end
$var wire 1 G noisy_in $end
$var wire 1 % reset $end
$var parameter 32 H CLK_HZ $end
$var parameter 32 I CNT_BITS $end
$var parameter 64 J COUNT_MAX $end
$var parameter 32 K DEBOUNCE_MS $end
$var reg 1 L clean_out $end
$var reg 2 M counter [1:0] $end
$var reg 1 N sync_reg $end
$upscope $end
$scope module deb3 $end
$var wire 1 $ clk $end
$var wire 1 O noisy_in $end
$var wire 1 % reset $end
$var parameter 32 P CLK_HZ $end
$var parameter 32 Q CNT_BITS $end
$var parameter 64 R COUNT_MAX $end
$var parameter 32 S DEBOUNCE_MS $end
$var reg 1 T clean_out $end
$var reg 2 U counter [1:0] $end
$var reg 1 V sync_reg $end
$upscope $end
$scope module disp $end
$var wire 1 $ clk $end
$var wire 1 % reset $end
$var wire 7 W seg [6:0] $end
$var wire 13 X number [12:0] $end
$var parameter 32 Y CLK_HZ $end
$var parameter 32 Z DIV_BITS $end
$var parameter 32 [ REFRESH_DIV $end
$var reg 4 \ active_digit [3:0] $end
$var reg 4 ] an [3:0] $end
$var reg 4 ^ digit0 [3:0] $end
$var reg 4 _ digit1 [3:0] $end
$var reg 4 ` digit2 [3:0] $end
$var reg 4 a digit3 [3:0] $end
$var reg 2 b disp_idx [1:0] $end
$var reg 2 c div_cnt [-1:0] $end
$var reg 1 d refresh_tick $end
$scope module decoder $end
$var wire 4 e digit [3:0] $end
$var reg 7 f seg [6:0] $end
$upscope $end
$upscope $end
$scope module fsm $end
$var wire 1 $ clk $end
$var wire 1 % reset $end
$var wire 4 g key_value [3:0] $end
$var wire 1 1 key_valid $end
$var reg 1 4 clear $end
$var reg 1 2 do_sum $end
$var reg 1 / load_num1 $end
$var reg 1 . load_num2 $end
$var reg 3 h next_state [2:0] $end
$var reg 3 i state [2:0] $end
$upscope $end
$scope module kb $end
$var wire 1 $ clk $end
$var wire 1 % reset $end
$var wire 4 j rows [3:0] $end
$var parameter 32 k CLK_HZ $end
$var parameter 32 l DIV_BITS $end
$var parameter 32 m SCAN_DIV $end
$var reg 2 n col_idx [1:0] $end
$var reg 4 o cols [3:0] $end
$var reg 3 p div_cnt [2:0] $end
$var reg 1 q key_detected $end
$var reg 1 1 key_valid $end
$var reg 4 r key_value [3:0] $end
$var reg 1 s scan_tick $end
$upscope $end
$scope module reg1 $end
$var wire 1 $ clk $end
$var wire 4 t digit [3:0] $end
$var wire 1 / load $end
$var wire 1 u reset $end
$var reg 12 v number [11:0] $end
$upscope $end
$scope module reg2 $end
$var wire 1 $ clk $end
$var wire 4 w digit [3:0] $end
$var wire 1 . load $end
$var wire 1 x reset $end
$var reg 12 y number [11:0] $end
$upscope $end
$scope module sum $end
$var wire 1 $ clk $end
$var wire 1 2 enable $end
$var wire 12 z num1 [11:0] $end
$var wire 12 { num2 [11:0] $end
$var wire 1 % reset $end
$var reg 13 | result [12:0] $end
$upscope $end
$scope module sync0 $end
$var wire 1 } async_in $end
$var wire 1 $ clk $end
$var reg 1 ~ meta $end
$var reg 1 !" sync_out $end
$upscope $end
$scope module sync1 $end
$var wire 1 "" async_in $end
$var wire 1 $ clk $end
$var reg 1 #" meta $end
$var reg 1 $" sync_out $end
$upscope $end
$scope module sync2 $end
$var wire 1 %" async_in $end
$var wire 1 $ clk $end
$var reg 1 &" meta $end
$var reg 1 '" sync_out $end
$upscope $end
$scope module sync3 $end
$var wire 1 (" async_in $end
$var wire 1 $ clk $end
$var reg 1 )" meta $end
$var reg 1 *" sync_out $end
$upscope $end
$upscope $end
$scope task press_key $end
$var reg 4 +" row_active [3:0] $end
$upscope $end
$upscope $end
$enddefinitions $end
$comment Show the parameter values. $end
$dumpall
b101 m
b11 l
b10100 k
b0 [
b0 Z
b10100 Y
b10100 S
b10 R
b10 Q
b10100 P
b10100 K
b10 J
b10 I
b10100 H
b10100 C
b10 B
b10 A
b10100 @
b10100 ;
b10 :
b10 9
b10100 8
b10100 6
$end
#0
$dumpvars
bx +"
x*"
x)"
1("
x'"
x&"
1%"
x$"
x#"
1""
x!"
x~
1}
b0 |
b0 {
b0 z
b0 y
1x
b0 w
b0 v
1u
b0 t
0s
b0 r
0q
b0 p
b1110 o
b0 n
b0 j
b0 i
b0 h
b0 g
b1000000 f
b0 e
0d
b0 c
b0 b
b0 a
b0 `
b0 _
b0 ^
b1110 ]
b0 \
b0 X
b1000000 W
0V
b0 U
0T
xO
0N
b0 M
0L
xG
0F
b0 E
0D
x?
0>
b0 =
0<
x7
b1110 5
14
b1110 3
02
01
b0 0
0/
0.
b0 -
b0 ,
b0 +
b0 *
bx )
b1000000 (
b1111 '
b1111 &
1%
0$
b1110 #
b1110 "
b1000000 !
$end
#5000
1~
1#"
1&"
1)"
1$
#10000
0$
#15000
1O
1G
1?
17
1*"
1'"
1$"
b1111 )
1!"
1$
#20000
0$
0%
#25000
b1 c
b1 p
b1 U
b1 M
b1 E
b1 =
1$
#30000
0$
#35000
1<
1>
b0 =
1D
1F
b0 E
1L
1N
b0 M
b1111 *
b1111 j
1T
1V
b0 U
b10 p
b10 c
1$
#40000
0$
#45000
b11 c
b11 p
1$
#50000
0$
#55000
b100 p
b0 c
1$
#60000
0$
#65000
b1 c
1s
b0 p
1$
#70000
0$
#75000
b1101 "
b1101 3
b1101 o
0s
b1 p
b1 n
b10 c
1$
#80000
0$
#85000
b11 c
b10 p
1$
#90000
0$
#95000
b11 p
b0 c
1$
#100000
0$
#105000
b1 c
b100 p
1$
#110000
0$
#115000
1s
b0 p
b10 c
1$
#120000
0$
#125000
b1011 "
b1011 3
b1011 o
b11 c
b10 n
0s
b1 p
1$
#130000
0$
#135000
b10 p
b0 c
1$
#140000
0$
#145000
b1 c
b11 p
1$
#150000
0$
#155000
b100 p
b10 c
1$
#160000
0$
#165000
b11 c
1s
b0 p
1$
#170000
0$
#175000
b111 "
b111 3
b111 o
0s
b1 p
b11 n
b0 c
1$
#180000
0$
#185000
b1 c
b10 p
1$
#190000
0$
#195000
b11 p
b10 c
1$
#200000
0$
#205000
b11 c
b100 p
1$
#210000
0$
#215000
1s
b0 p
b0 c
1$
#220000
0$
#225000
b1110 "
b1110 3
b1110 o
b1 c
b0 n
0s
b1 p
1$
#230000
0$
#235000
b10 p
b10 c
1$
#240000
0$
#245000
b11 c
b11 p
1$
#250000
0$
#255000
b100 p
b0 c
1$
#260000
0$
#265000
b1 c
1s
b0 p
1$
#270000
0$
#275000
b1101 "
b1101 3
b1101 o
0s
b1 p
b1 n
b10 c
1$
#280000
0$
#285000
b11 c
b10 p
1$
#290000
0$
#295000
b11 p
b0 c
1$
#300000
0$
#305000
b1 c
b100 p
1$
#310000
0$
#315000
1s
b0 p
b10 c
1$
#320000
0$
#325000
b1011 "
b1011 3
b1011 o
b11 c
b10 n
0s
b1 p
1$
#330000
0$
#335000
b10 p
b0 c
1$
#340000
0$
#345000
b1 c
b11 p
1$
#350000
0$
#355000
b100 p
b10 c
1$
#360000
0$
#365000
b11 c
1s
b0 p
1$
#370000
0$
#375000
b111 "
b111 3
b111 o
0s
b1 p
b11 n
b0 c
1$
#380000
0$
#385000
b1 c
b10 p
1$
#390000
0$
#395000
b11 p
b10 c
1$
#400000
0$
#405000
b11 c
b100 p
1$
#410000
0$
#415000
1s
b0 p
b0 c
1$
#420000
0$
#425000
b1110 "
b1110 3
b1110 o
b1 c
b0 n
0s
b1 p
1$
#430000
0$
#435000
b10 p
b10 c
1$
#440000
0$
#445000
b11 c
b11 p
1$
#450000
0$
#455000
b100 p
b0 c
1$
#460000
0$
#465000
b1 c
1s
b0 p
1$
#470000
0$
#475000
b1101 "
b1101 3
b1101 o
0s
b1 p
b1 n
b10 c
1$
#480000
0$
#485000
b11 c
b10 p
1$
#490000
0$
#495000
b11 p
b0 c
1$
#500000
0$
#505000
b1 c
b100 p
1$
#510000
0$
#515000
1s
b0 p
b10 c
1$
#520000
0}
0$
b1110 &
b1110 '
b1110 +"
#525000
b1011 "
b1011 3
b1011 o
b11 c
b10 n
0s
b1 p
0~
1$
#530000
0$
#535000
07
b10 p
b0 c
b1110 )
0!"
1$
#540000
0$
#545000
b1 c
b11 p
b1 =
1$
#550000
0$
#555000
b1110 *
b1110 j
0<
0>
b0 =
b100 p
b10 c
1$
#560000
0$
#565000
b11 c
1s
b0 p
1$
#570000
0$
#575000
b111 "
b111 3
b111 o
14
b1 h
0s
b1 p
b11 n
b11 0
b11 g
b11 r
b11 t
b11 w
11
1q
b0 c
1$
#580000
0$
#585000
0x
0u
04
b1 c
b1 i
01
b10 p
1$
#590000
0$
#595000
b11 p
b10 c
1$
#600000
0$
#605000
b11 c
b100 p
1$
#610000
0$
#615000
1s
b0 p
b0 c
1$
#620000
0$
#625000
b1110 "
b1110 3
b1110 o
b1 c
b0 n
0s
b1 p
1$
#630000
0$
#635000
b10 p
b10 c
1$
#640000
0$
#645000
b11 c
b11 p
1$
#650000
0$
#655000
b100 p
b0 c
1$
#660000
0$
#665000
b1 c
1s
b0 p
1$
#670000
0$
#675000
b1101 "
b1101 3
b1101 o
0s
b1 p
b1 n
b10 c
1$
#680000
0$
#685000
b11 c
b10 p
1$
#690000
0$
#695000
b11 p
b0 c
1$
#700000
0$
#705000
b1 c
b100 p
1$
#710000
0$
#715000
1s
b0 p
b10 c
1$
#720000
0$
#725000
b1011 "
b1011 3
b1011 o
b11 c
b10 n
0s
b1 p
1$
#730000
0$
#735000
b10 p
b0 c
1$
#740000
0$
#745000
b1 c
b11 p
1$
#750000
0$
#755000
b100 p
b10 c
1$
#760000
0$
#765000
b11 c
1s
b0 p
1$
#770000
0$
#775000
b111 "
b111 3
b111 o
0s
b1 p
b11 n
b0 c
1$
#780000
0$
#785000
b1 c
b10 p
1$
#790000
0$
#795000
b11 p
b10 c
1$
#800000
0$
#805000
b11 c
b100 p
1$
#810000
0$
#815000
1s
b0 p
b0 c
1$
#820000
0$
#825000
b1110 "
b1110 3
b1110 o
b1 c
b0 n
0s
b1 p
1$
#830000
0$
#835000
b10 p
b10 c
1$
#840000
0$
#845000
b11 c
b11 p
1$
#850000
0$
#855000
b100 p
b0 c
1$
#860000
0$
#865000
b1 c
1s
b0 p
1$
#870000
0$
#875000
b1101 "
b1101 3
b1101 o
0s
b1 p
b1 n
b10 c
1$
#880000
0$
#885000
b11 c
b10 p
1$
#890000
0$
#895000
b11 p
b0 c
1$
#900000
0$
#905000
b1 c
b100 p
1$
#910000
0$
#915000
1s
b0 p
b10 c
1$
#920000
0$
#925000
b1011 "
b1011 3
b1011 o
b11 c
b10 n
0s
b1 p
1$
#930000
0$
#935000
b10 p
b0 c
1$
#940000
0$
#945000
b1 c
b11 p
1$
#950000
0$
#955000
b100 p
b10 c
1$
#960000
0$
#965000
b11 c
1s
b0 p
1$
#970000
0$
#975000
b111 "
b111 3
b111 o
0s
b1 p
b11 n
b0 c
1$
#980000
0$
#985000
b1 c
b10 p
1$
#990000
0$
#995000
b11 p
b10 c
1$
#1000000
0$
#1005000
b11 c
b100 p
1$
#1010000
0$
#1015000
1s
b0 p
b0 c
1$
#1020000
0$
#1025000
b1110 "
b1110 3
b1110 o
b1 c
b0 n
0s
b1 p
1$
#1030000
0$
#1035000
b10 p
b10 c
1$
#1040000
0$
#1045000
b11 c
b11 p
1$
#1050000
0$
#1055000
b100 p
b0 c
1$
#1060000
0$
#1065000
b1 c
1s
b0 p
1$
#1070000
0$
#1075000
b1101 "
b1101 3
b1101 o
0s
b1 p
b1 n
b10 c
1$
#1080000
0$
#1085000
b11 c
b10 p
1$
#1090000
0$
#1095000
b11 p
b0 c
1$
#1100000
0$
#1105000
b1 c
b100 p
1$
#1110000
0$
#1115000
1s
b0 p
b10 c
1$
#1120000
0$
#1125000
b1011 "
b1011 3
b1011 o
b11 c
b10 n
0s
b1 p
1$
#1130000
0$
#1135000
b10 p
b0 c
1$
#1140000
0$
#1145000
b1 c
b11 p
1$
#1150000
0$
#1155000
b100 p
b10 c
1$
#1160000
0$
#1165000
b11 c
1s
b0 p
1$
#1170000
0$
#1175000
b111 "
b111 3
b111 o
0s
b1 p
b11 n
b0 c
1$
#1180000
0$
#1185000
b1 c
b10 p
1$
#1190000
0$
#1195000
b11 p
b10 c
1$
#1200000
0$
#1205000
b11 c
b100 p
1$
#1210000
0$
#1215000
1s
b0 p
b0 c
1$
#1220000
0$
#1225000
b1110 "
b1110 3
b1110 o
b1 c
b0 n
0s
b1 p
1$
#1230000
0$
#1235000
b10 p
b10 c
1$
#1240000
0$
#1245000
b11 c
b11 p
1$
#1250000
0$
#1255000
b100 p
b0 c
1$
#1260000
0$
#1265000
b1 c
1s
b0 p
1$
#1270000
0$
#1275000
b1101 "
b1101 3
b1101 o
0s
b1 p
b1 n
b10 c
1$
#1280000
0$
#1285000
b11 c
b10 p
1$
#1290000
0$
#1295000
b11 p
b0 c
1$
#1300000
0$
#1305000
b1 c
b100 p
1$
#1310000
0$
#1315000
1s
b0 p
b10 c
1$
#1320000
0$
#1325000
b1011 "
b1011 3
b1011 o
b11 c
b10 n
0s
b1 p
1$
#1330000
0$
#1335000
b10 p
b0 c
1$
#1340000
0$
#1345000
b1 c
b11 p
1$
#1350000
0$
#1355000
b100 p
b10 c
1$
#1360000
0$
#1365000
b11 c
1s
b0 p
1$
#1370000
0$
#1375000
b111 "
b111 3
b111 o
0s
b1 p
b11 n
b0 c
1$
#1380000
0$
#1385000
b1 c
b10 p
1$
#1390000
0$
#1395000
b11 p
b10 c
1$
#1400000
0$
#1405000
b11 c
b100 p
1$
#1410000
0$
#1415000
1s
b0 p
b0 c
1$
#1420000
0$
#1425000
b1110 "
b1110 3
b1110 o
b1 c
b0 n
0s
b1 p
1$
#1430000
0$
#1435000
b10 p
b10 c
1$
#1440000
0$
#1445000
b11 c
b11 p
1$
#1450000
0$
#1455000
b100 p
b0 c
1$
#1460000
0$
#1465000
b1 c
1s
b0 p
1$
#1470000
0$
#1475000
b1101 "
b1101 3
b1101 o
0s
b1 p
b1 n
b10 c
1$
#1480000
0$
#1485000
b11 c
b10 p
1$
#1490000
0$
#1495000
b11 p
b0 c
1$
#1500000
0$
#1505000
b1 c
b100 p
1$
#1510000
0$
#1515000
1s
b0 p
b10 c
1$
#1520000
0$
#1525000
b1011 "
b1011 3
b1011 o
b11 c
b10 n
0s
b1 p
1$
#1530000
0$
#1535000
b10 p
b0 c
1$
#1540000
0$
#1545000
b1 c
b11 p
1$
#1550000
0$
#1555000
b100 p
b10 c
1$
#1560000
0$
#1565000
b11 c
1s
b0 p
1$
#1570000
0$
#1575000
b111 "
b111 3
b111 o
0s
b1 p
b11 n
b0 c
1$
#1580000
0$
#1585000
b1 c
b10 p
1$
#1590000
0$
#1595000
b11 p
b10 c
1$
#1600000
0$
#1605000
b11 c
b100 p
1$
#1610000
0$
#1615000
1s
b0 p
b0 c
1$
#1620000
0$
#1625000
b1110 "
b1110 3
b1110 o
b1 c
b0 n
0s
b1 p
1$
#1630000
0$
#1635000
b10 p
b10 c
1$
#1640000
0$
#1645000
b11 c
b11 p
1$
#1650000
0$
#1655000
b100 p
b0 c
1$
#1660000
0$
#1665000
b1 c
1s
b0 p
1$
#1670000
0$
#1675000
b1101 "
b1101 3
b1101 o
0s
b1 p
b1 n
b10 c
1$
#1680000
0$
#1685000
b11 c
b10 p
1$
#1690000
0$
#1695000
b11 p
b0 c
1$
#1700000
0$
#1705000
b1 c
b100 p
1$
#1710000
0$
#1715000
1s
b0 p
b10 c
1$
#1720000
0$
#1725000
b1011 "
b1011 3
b1011 o
b11 c
b10 n
0s
b1 p
1$
#1730000
0$
#1735000
b10 p
b0 c
1$
#1740000
0$
#1745000
b1 c
b11 p
1$
#1750000
0$
#1755000
b100 p
b10 c
1$
#1760000
0$
#1765000
b11 c
1s
b0 p
1$
#1770000
0$
#1775000
b111 "
b111 3
b111 o
0s
b1 p
b11 n
b0 c
1$
#1780000
0$
#1785000
b1 c
b10 p
1$
#1790000
0$
#1795000
b11 p
b10 c
1$
#1800000
0$
#1805000
b11 c
b100 p
1$
#1810000
0$
#1815000
1s
b0 p
b0 c
1$
#1820000
0$
#1825000
b1110 "
b1110 3
b1110 o
b1 c
b0 n
0s
b1 p
1$
#1830000
0$
#1835000
b10 p
b10 c
1$
#1840000
0$
#1845000
b11 c
b11 p
1$
#1850000
0$
#1855000
b100 p
b0 c
1$
#1860000
0$
#1865000
b1 c
1s
b0 p
1$
#1870000
0$
#1875000
b1101 "
b1101 3
b1101 o
0s
b1 p
b1 n
b10 c
1$
#1880000
0$
#1885000
b11 c
b10 p
1$
#1890000
0$
#1895000
b11 p
b0 c
1$
#1900000
0$
#1905000
b1 c
b100 p
1$
#1910000
0$
#1915000
1s
b0 p
b10 c
1$
#1920000
0$
#1925000
b1011 "
b1011 3
b1011 o
b11 c
b10 n
0s
b1 p
1$
#1930000
0$
#1935000
b10 p
b0 c
1$
#1940000
0$
#1945000
b1 c
b11 p
1$
#1950000
0$
#1955000
b100 p
b10 c
1$
#1960000
0$
#1965000
b11 c
1s
b0 p
1$
#1970000
0$
#1975000
b111 "
b111 3
b111 o
0s
b1 p
b11 n
b0 c
1$
#1980000
0$
#1985000
b1 c
b10 p
1$
#1990000
0$
#1995000
b11 p
b10 c
1$
#2000000
0$
#2005000
b11 c
b100 p
1$
#2010000
0$
#2015000
1s
b0 p
b0 c
1$
#2020000
0$
#2025000
b1110 "
b1110 3
b1110 o
b1 c
b0 n
0s
b1 p
1$
#2030000
0$
#2035000
b10 p
b10 c
1$
#2040000
0$
#2045000
b11 c
b11 p
1$
#2050000
0$
#2055000
b100 p
b0 c
1$
#2060000
0$
#2065000
b1 c
1s
b0 p
1$
#2070000
0$
#2075000
b1101 "
b1101 3
b1101 o
0s
b1 p
b1 n
b10 c
1$
#2080000
0$
#2085000
b11 c
b10 p
1$
#2090000
0$
#2095000
b11 p
b0 c
1$
#2100000
0$
#2105000
b1 c
b100 p
1$
#2110000
0$
#2115000
1s
b0 p
b10 c
1$
#2120000
0$
#2125000
b1011 "
b1011 3
b1011 o
b11 c
b10 n
0s
b1 p
1$
#2130000
0$
#2135000
b10 p
b0 c
1$
#2140000
0$
#2145000
b1 c
b11 p
1$
#2150000
0$
#2155000
b100 p
b10 c
1$
#2160000
0$
#2165000
b11 c
1s
b0 p
1$
#2170000
0$
#2175000
b111 "
b111 3
b111 o
0s
b1 p
b11 n
b0 c
1$
#2180000
0$
#2185000
b1 c
b10 p
1$
#2190000
0$
#2195000
b11 p
b10 c
1$
#2200000
0$
#2205000
b11 c
b100 p
1$
#2210000
0$
#2215000
1s
b0 p
b0 c
1$
#2220000
0$
#2225000
b1110 "
b1110 3
b1110 o
b1 c
b0 n
0s
b1 p
1$
#2230000
0$
#2235000
b10 p
b10 c
1$
#2240000
0$
#2245000
b11 c
b11 p
1$
#2250000
0$
#2255000
b100 p
b0 c
1$
#2260000
0$
#2265000
b1 c
1s
b0 p
1$
#2270000
0$
#2275000
b1101 "
b1101 3
b1101 o
0s
b1 p
b1 n
b10 c
1$
#2280000
0$
#2285000
b11 c
b10 p
1$
#2290000
0$
#2295000
b11 p
b0 c
1$
#2300000
0$
#2305000
b1 c
b100 p
1$
#2310000
0$
#2315000
1s
b0 p
b10 c
1$
#2320000
0$
#2325000
b1011 "
b1011 3
b1011 o
b11 c
b10 n
0s
b1 p
1$
#2330000
0$
#2335000
b10 p
b0 c
1$
#2340000
0$
#2345000
b1 c
b11 p
1$
#2350000
0$
#2355000
b100 p
b10 c
1$
#2360000
0$
#2365000
b11 c
1s
b0 p
1$
#2370000
0$
#2375000
b111 "
b111 3
b111 o
0s
b1 p
b11 n
b0 c
1$
#2380000
0$
#2385000
b1 c
b10 p
1$
#2390000
0$
#2395000
b11 p
b10 c
1$
#2400000
0$
#2405000
b11 c
b100 p
1$
#2410000
0$
#2415000
1s
b0 p
b0 c
1$
#2420000
0$
#2425000
b1110 "
b1110 3
b1110 o
b1 c
b0 n
0s
b1 p
1$
#2430000
0$
#2435000
b10 p
b10 c
1$
#2440000
0$
#2445000
b11 c
b11 p
1$
#2450000
0$
#2455000
b100 p
b0 c
1$
#2460000
0$
#2465000
b1 c
1s
b0 p
1$
#2470000
0$
#2475000
b1101 "
b1101 3
b1101 o
0s
b1 p
b1 n
b10 c
1$
#2480000
0$
#2485000
b11 c
b10 p
1$
#2490000
0$
#2495000
b11 p
b0 c
1$
#2500000
0$
#2505000
b1 c
b100 p
1$
#2510000
0$
#2515000
1s
b0 p
b10 c
1$
#2520000
1}
0$
b1111 &
b1111 '
#2525000
b1011 "
b1011 3
b1011 o
b11 c
b10 n
0s
b1 p
1~
1$
#2530000
0$
#2535000
17
b10 p
b0 c
b1111 )
1!"
1$
#2540000
0$
#2545000
b1 c
b11 p
b1 =
1$
#2550000
0$
#2555000
b1111 *
b1111 j
1<
1>
b0 =
b100 p
b10 c
1$
#2560000
0$
#2565000
b11 c
1s
b0 p
1$
#2570000
0$
#2575000
b111 "
b111 3
b111 o
0s
b1 p
b11 n
0q
b0 c
1$
#2580000
0$
#2585000
b1 c
b10 p
1$
#2590000
0$
#2595000
b11 p
b10 c
1$
#2600000
0$
#2605000
b11 c
b100 p
1$
#2610000
0$
#2615000
1s
b0 p
b0 c
1$
#2620000
0$
#2625000
b1110 "
b1110 3
b1110 o
b1 c
b0 n
0s
b1 p
1$
#2630000
0$
#2635000
b10 p
b10 c
1$
#2640000
0$
#2645000
b11 c
b11 p
1$
#2650000
0$
#2655000
b100 p
b0 c
1$
#2660000
0$
#2665000
b1 c
1s
b0 p
1$
#2670000
0$
#2675000
b1101 "
b1101 3
b1101 o
0s
b1 p
b1 n
b10 c
1$
#2680000
0$
#2685000
b11 c
b10 p
1$
#2690000
0$
#2695000
b11 p
b0 c
1$
#2700000
0$
#2705000
b1 c
b100 p
1$
#2710000
0$
#2715000
1s
b0 p
b10 c
1$
#2720000
0$
#2725000
b1011 "
b1011 3
b1011 o
b11 c
b10 n
0s
b1 p
1$
#2730000
0$
#2735000
b10 p
b0 c
1$
#2740000
0$
#2745000
b1 c
b11 p
1$
#2750000
0$
#2755000
b100 p
b10 c
1$
#2760000
0$
#2765000
b11 c
1s
b0 p
1$
#2770000
0$
#2775000
b111 "
b111 3
b111 o
0s
b1 p
b11 n
b0 c
1$
#2780000
0$
#2785000
b1 c
b10 p
1$
#2790000
0$
#2795000
b11 p
b10 c
1$
#2800000
0$
#2805000
b11 c
b100 p
1$
#2810000
0$
#2815000
1s
b0 p
b0 c
1$
#2820000
0$
#2825000
b1110 "
b1110 3
b1110 o
b1 c
b0 n
0s
b1 p
1$
#2830000
0$
#2835000
b10 p
b10 c
1$
#2840000
0$
#2845000
b11 c
b11 p
1$
#2850000
0$
#2855000
b100 p
b0 c
1$
#2860000
0$
#2865000
b1 c
1s
b0 p
1$
#2870000
0$
#2875000
b1101 "
b1101 3
b1101 o
0s
b1 p
b1 n
b10 c
1$
#2880000
0$
#2885000
b11 c
b10 p
1$
#2890000
0$
#2895000
b11 p
b0 c
1$
#2900000
0$
#2905000
b1 c
b100 p
1$
#2910000
0$
#2915000
1s
b0 p
b10 c
1$
#2920000
0$
#2925000
b1011 "
b1011 3
b1011 o
b11 c
b10 n
0s
b1 p
1$
#2930000
0$
#2935000
b10 p
b0 c
1$
#2940000
0$
#2945000
b1 c
b11 p
1$
#2950000
0$
#2955000
b100 p
b10 c
1$
#2960000
0$
#2965000
b11 c
1s
b0 p
1$
#2970000
0$
#2975000
b111 "
b111 3
b111 o
0s
b1 p
b11 n
b0 c
1$
#2980000
0$
#2985000
b1 c
b10 p
1$
#2990000
0$
#2995000
b11 p
b10 c
1$
#3000000
0$
#3005000
b11 c
b100 p
1$
#3010000
0$
#3015000
1s
b0 p
b0 c
1$
#3020000
0}
0$
b1110 &
b1110 '
#3025000
b1110 "
b1110 3
b1110 o
b1 c
b0 n
0s
b1 p
0~
1$
#3030000
0$
#3035000
07
b10 p
b10 c
b1110 )
0!"
1$
#3040000
0$
#3045000
b11 c
b11 p
b1 =
1$
#3050000
0$
#3055000
b1110 *
b1110 j
0<
0>
b0 =
b100 p
b0 c
1$
#3060000
0$
#3065000
b1 c
1s
b0 p
1$
#3070000
0$
#3075000
b1101 "
b1101 3
b1101 o
1/
0s
b1 p
b1 n
b1 0
b1 g
b1 r
b1 t
b1 w
11
1q
b10 c
1$
#3080000
0$
#3085000
0/
b11 c
01
b10 p
b1 -
b1 v
b1 z
1$
#3090000
0$
#3095000
b11 p
b0 c
1$
#3100000
0$
#3105000
b1 c
b100 p
1$
#3110000
0$
#3115000
1s
b0 p
b10 c
1$
#3120000
0$
#3125000
b1011 "
b1011 3
b1011 o
b11 c
b10 n
0s
b1 p
1$
#3130000
0$
#3135000
b10 p
b0 c
1$
#3140000
0$
#3145000
b1 c
b11 p
1$
#3150000
0$
#3155000
b100 p
b10 c
1$
#3160000
0$
#3165000
b11 c
1s
b0 p
1$
#3170000
0$
#3175000
b111 "
b111 3
b111 o
0s
b1 p
b11 n
b0 c
1$
#3180000
0$
#3185000
b1 c
b10 p
1$
#3190000
0$
#3195000
b11 p
b10 c
1$
#3200000
0$
#3205000
b11 c
b100 p
1$
#3210000
0$
#3215000
1s
b0 p
b0 c
1$
#3220000
0$
#3225000
b1110 "
b1110 3
b1110 o
b1 c
b0 n
0s
b1 p
1$
#3230000
0$
#3235000
b10 p
b10 c
1$
#3240000
0$
#3245000
b11 c
b11 p
1$
#3250000
0$
#3255000
b100 p
b0 c
1$
#3260000
0$
#3265000
b1 c
1s
b0 p
1$
#3270000
0$
#3275000
b1101 "
b1101 3
b1101 o
0s
b1 p
b1 n
b10 c
1$
#3280000
0$
#3285000
b11 c
b10 p
1$
#3290000
0$
#3295000
b11 p
b0 c
1$
#3300000
0$
#3305000
b1 c
b100 p
1$
#3310000
0$
#3315000
1s
b0 p
b10 c
1$
#3320000
0$
#3325000
b1011 "
b1011 3
b1011 o
b11 c
b10 n
0s
b1 p
1$
#3330000
0$
#3335000
b10 p
b0 c
1$
#3340000
0$
#3345000
b1 c
b11 p
1$
#3350000
0$
#3355000
b100 p
b10 c
1$
#3360000
0$
#3365000
b11 c
1s
b0 p
1$
#3370000
0$
#3375000
b111 "
b111 3
b111 o
0s
b1 p
b11 n
b0 c
1$
#3380000
0$
#3385000
b1 c
b10 p
1$
#3390000
0$
#3395000
b11 p
b10 c
1$
#3400000
0$
#3405000
b11 c
b100 p
1$
#3410000
0$
#3415000
1s
b0 p
b0 c
1$
#3420000
0$
#3425000
b1110 "
b1110 3
b1110 o
b1 c
b0 n
0s
b1 p
1$
#3430000
0$
#3435000
b10 p
b10 c
1$
#3440000
0$
#3445000
b11 c
b11 p
1$
#3450000
0$
#3455000
b100 p
b0 c
1$
#3460000
0$
#3465000
b1 c
1s
b0 p
1$
#3470000
0$
#3475000
b1101 "
b1101 3
b1101 o
0s
b1 p
b1 n
b10 c
1$
#3480000
0$
#3485000
b11 c
b10 p
1$
#3490000
0$
#3495000
b11 p
b0 c
1$
#3500000
0$
#3505000
b1 c
b100 p
1$
#3510000
0$
#3515000
1s
b0 p
b10 c
1$
#3520000
0$
#3525000
b1011 "
b1011 3
b1011 o
b11 c
b10 n
0s
b1 p
1$
#3530000
0$
#3535000
b10 p
b0 c
1$
#3540000
0$
#3545000
b1 c
b11 p
1$
#3550000
0$
#3555000
b100 p
b10 c
1$
#3560000
0$
#3565000
b11 c
1s
b0 p
1$
#3570000
0$
#3575000
b111 "
b111 3
b111 o
0s
b1 p
b11 n
b0 c
1$
#3580000
0$
#3585000
b1 c
b10 p
1$
#3590000
0$
#3595000
b11 p
b10 c
1$
#3600000
0$
#3605000
b11 c
b100 p
1$
#3610000
0$
#3615000
1s
b0 p
b0 c
1$
#3620000
0$
#3625000
b1110 "
b1110 3
b1110 o
b1 c
b0 n
0s
b1 p
1$
#3630000
0$
#3635000
b10 p
b10 c
1$
#3640000
0$
#3645000
b11 c
b11 p
1$
#3650000
0$
