Proyecto_3/Referencias/srcpry2/build/tb_fsm_top.vcd
$date
	Mon May 04 23:37:34 2026
$end
$version
	Icarus Verilog
$end
$timescale
	1ps
$end
$scope module tb_fsm_top $end
$var wire 7 ! seven [6:0] $end
$var wire 4 " filas [3:0] $end
$var wire 4 # anodo [3:0] $end
$var reg 1 $ clk $end
$var reg 4 % columnas [3:0] $end
$var reg 1 & rst_n $end
$scope module dut $end
$var wire 1 $ clk $end
$var wire 4 ' columnas [3:0] $end
$var wire 1 & rst_n $end
$var wire 7 ( seven [6:0] $end
$var wire 4 ) r3 [3:0] $end
$var wire 4 * r2 [3:0] $end
$var wire 4 + r1 [3:0] $end
$var wire 4 , r0 [3:0] $end
$var wire 1 - overflow $end
$var wire 4 . key_value [3:0] $end
$var wire 1 / key_valid $end
$var wire 4 0 filas [3:0] $end
$var wire 4 1 anodo [3:0] $end
$var reg 4 2 a0 [3:0] $end
$var reg 4 3 a1 [3:0] $end
$var reg 4 4 a2 [3:0] $end
$var reg 4 5 a3 [3:0] $end
$var reg 4 6 b0 [3:0] $end
$var reg 4 7 b1 [3:0] $end
$var reg 4 8 b2 [3:0] $end
$var reg 4 9 b3 [3:0] $end
$var reg 4 : d0 [3:0] $end
$var reg 4 ; d1 [3:0] $end
$var reg 4 < d2 [3:0] $end
$var reg 4 = d3 [3:0] $end
$var reg 2 > state [1:0] $end
$scope module adder_inst $end
$var wire 4 ? a0 [3:0] $end
$var wire 4 @ a1 [3:0] $end
$var wire 4 A a2 [3:0] $end
$var wire 4 B a3 [3:0] $end
$var wire 4 C b0 [3:0] $end
$var wire 4 D b1 [3:0] $end
$var wire 4 E b2 [3:0] $end
$var wire 4 F b3 [3:0] $end
$var reg 1 G c0 $end
$var reg 1 H c1 $end
$var reg 1 I c2 $end
$var reg 1 J c3 $end
$var reg 1 - overflow $end
$var reg 4 K r0 [3:0] $end
$var reg 4 L r1 [3:0] $end
$var reg 4 M r2 [3:0] $end
$var reg 4 N r3 [3:0] $end
$scope function add_bcd_digit $end
$upscope $end
$upscope $end
$scope module display_inst $end
$var wire 1 $ clk $end
$var wire 4 O d0 [3:0] $end
$var wire 4 P d1 [3:0] $end
$var wire 4 Q d2 [3:0] $end
$var wire 4 R d3 [3:0] $end
$var wire 1 & rst_n $end
$var wire 7 S seven [6:0] $end
$var wire 2 T sel [1:0] $end
$var reg 4 U anodo [3:0] $end
$var reg 4 V digit [3:0] $end
$var reg 16 W refresh_count [15:0] $end
$scope module decoder_inst $end
$var wire 4 X hex [3:0] $end
$var reg 7 Y seg [6:0] $end
$upscope $end
$upscope $end
$scope module keypad_inst $end
$var wire 1 $ clk $end
$var wire 4 Z columnas [3:0] $end
$var wire 1 & rst_n $end
$var parameter 32 [ RELEASE_DELAY $end
$var parameter 32 \ SCAN_DELAY $end
$var reg 4 ] col_read [3:0] $end
$var reg 4 ^ columnas_ff1 [3:0] $end
$var reg 4 _ columnas_sync [3:0] $end
$var reg 1 ` detected $end
$var reg 2 a fila_index [1:0] $end
$var reg 4 b filas [3:0] $end
$var reg 4 c key_code [3:0] $end
$var reg 1 / key_valid $end
$var reg 4 d key_value [3:0] $end
$var reg 1 e locked $end
$var reg 18 f release_cnt [17:0] $end
$var reg 16 g scan_cnt [15:0] $end
$upscope $end
$upscope $end
$scope task key_to_row_col $end
$var reg 4 h col [3:0] $end
$var reg 4 i key [3:0] $end
$var reg 4 j row [3:0] $end
$upscope $end
$scope task press_key $end
$var reg 4 k key [3:0] $end
$var reg 4 l target_col [3:0] $end
$var reg 4 m target_row [3:0] $end
$upscope $end
$upscope $end
$enddefinitions $end
$comment Show the parameter values. $end
$dumpall
b1010 \
b10100 [
$end
#0
$dumpvars
bx m
bx l
bx k
bx j
bx i
bx h
b0 g
b0 f
0e
b0 d
b0 c
b1110 b
b0 a
0`
b1111 _
b1111 ^
b1111 ]
b1111 Z
b1111110 Y
b0 X
b0 W
b0 V
b1110 U
b0 T
b1111110 S
b0 R
b0 Q
b0 P
b0 O
b0 N
b0 M
b0 L
b0 K
0J
0I
0H
0G
b0 F
b0 E
b0 D
b0 C
b0 B
b0 A
b0 @
b0 ?
b0 >
b0 =
b0 <
b0 ;
b0 :
b0 9
b0 8
b0 7
b0 6
b0 5
b0 4
b0 3
b0 2
b1110 1
b1110 0
0/
b0 .
0-
b0 ,
b0 +
b0 *
b0 )
b1111110 (
b1111 '
0&
b1111 %
0$
b1110 #
b1110 "
b1111110 !
$end
#18500
1$
#37000
0$
#55500
1$
#74000
0$
#92500
1$
#111000
0$
#129500
1$
#148000
0$
#166500
1$
#185000
0$
#203500
1$
#222000
0$
#240500
1$
#259000
0$
#277500
1$
#296000
0$
#314500
1$
#333000
0$
#351500
b1 g
b1 W
1&
1$
#370000
0$
#388500
b10 W
b10 g
1$
#407000
0$
#425500
b11 g
b11 W
1$
#444000
0$
#462500
b100 W
b100 g
1$
#481000
0$
#499500
b101 g
b101 W
1$
#518000
0$
#536500
b110 W
b110 g
1$
#555000
0$
#573500
b111 g
b111 W
1$
#592000
0$
#610500
b1000 W
b1000 g
1$
#629000
0$
#647500
b1001 g
b1001 W
1$
#666000
0$
#684500
b1101 "
b1101 0
b1101 b
b1010 W
b1 a
b0 g
1$
#703000
0$
#721500
b1 g
b1011 W
1$
#740000
0$
#758500
b1100 W
b10 g
1$
#777000
0$
#795500
b11 g
b1101 W
1$
#814000
0$
#832500
b1110 W
b100 g
1$
#851000
0$
#869500
b101 g
b1111 W
1$
#888000
0$
#906500
b10000 W
b110 g
1$
#925000
0$
#943500
b111 g
b10001 W
1$
#962000
0$
#980500
b10010 W
b1000 g
1$
#999000
0$
#1017500
b1001 g
b10011 W
1$
#1036000
0$
#1054500
b1011 "
b1011 0
b1011 b
b10100 W
b10 a
b0 g
1$
#1073000
0$
#1091500
b1 g
b10101 W
b1110 l
b111 m
b1110 h
b111 j
b1 i
b1 k
1$
#1110000
0$
#1128500
b10110 W
b10 g
1$
#1147000
0$
#1165500
b11 g
b10111 W
1$
#1184000
0$
#1202500
b11000 W
b100 g
1$
#1221000
0$
#1239500
b101 g
b11001 W
1$
#1258000
0$
#1276500
b11010 W
b110 g
1$
#1295000
0$
#1313500
b111 g
b11011 W
1$
#1332000
0$
#1350500
b11100 W
b1000 g
1$
#1369000
0$
#1387500
b1001 g
b11101 W
1$
#1406000
0$
#1424500
b1110 %
b1110 '
b1110 Z
b111 "
b111 0
b111 b
b11110 W
b11 a
b0 g
1$
#1443000
0$
#1461500
b1110 ^
b1 g
b11111 W
1$
#1480000
0$
#1498500
b100000 W
b10 g
b1110 _
1$
#1517000
0$
#1535500
1`
b1 c
b11 g
b1110 ]
b100001 W
1$
#1554000
0$
#1572500
b100010 W
1e
1/
b1 .
b1 d
b100 g
1$
#1591000
0$
#1609500
b1110 #
b1110 1
b1110 U
b1 ,
b1 K
b1 :
b1 O
0/
b100011 W
b1 2
b1 ?
1$
#1628000
0$
#1646500
b100100 W
1$
#1665000
0$
#1683500
b100101 W
1$
#1702000
0$
#1720500
b100110 W
1$
#1739000
0$
#1757500
b100111 W
1$
#1776000
0$
#1794500
b101000 W
1$
#1813000
0$
#1831500
b101001 W
1$
#1850000
0$
#1868500
b101010 W
1$
#1887000
0$
#1905500
b101011 W
1$
#1924000
0$
#1942500
b101100 W
1$
#1961000
0$
#1979500
b101101 W
1$
#1998000
0$
#2016500
b101110 W
1$
#2035000
0$
#2053500
b101111 W
1$
#2072000
0$
#2090500
b110000 W
1$
#2109000
0$
#2127500
b110001 W
1$
#2146000
0$
#2164500
b110010 W
1$
#2183000
0$
#2201500
b110011 W
1$
#2220000
0$
#2238500
b110100 W
1$
#2257000
0$
#2275500
b110101 W
1$
#2294000
0$
#2312500
b110110 W
1$
#2331000
0$
#2349500
b110111 W
1$
#2368000
0$
#2386500
b111000 W
1$
#2405000
0$
#2423500
b111001 W
1$
#2442000
0$
#2460500
b111010 W
1$
#2479000
0$
#2497500
b111011 W
1$
#2516000
0$
#2534500
b111100 W
1$
#2553000
0$
#2571500
b111101 W
1$
#2590000
0$
#2608500
b111110 W
1$
#2627000
0$
#2645500
b111111 W
1$
#2664000
0$
#2682500
b1000000 W
1$
#2701000
0$
#2719500
b1000001 W
1$
#2738000
0$
#2756500
b1000010 W
1$
#2775000
0$
#2793500
b1000011 W
1$
#2812000
0$
#2830500
b1000100 W
1$
#2849000
0$
#2867500
b1000101 W
1$
#2886000
0$
#2904500
b1000110 W
b1111 ^
b1111 %
b1111 '
b1111 Z
1$
#2923000
0$
#2941500
b1111 _
b1000111 W
1$
#2960000
0$
#2978500
0`
b0 c
b1001000 W
b1111 ]
1$
#2997000
0$
#3015500
b1 f
b1001001 W
1$
#3034000
0$
#3052500
b1001010 W
b10 f
1$
#3071000
0$
#3089500
b11 f
b1001011 W
1$
#3108000
0$
#3126500
b1001100 W
b100 f
1$
#3145000
0$
#3163500
b101 f
b1001101 W
1$
#3182000
0$
#3200500
b1001110 W
b110 f
1$
#3219000
0$
#3237500
b111 f
b1001111 W
1$
#3256000
0$
#3274500
b1010000 W
b1000 f
1$
#3293000
0$
#3311500
b1001 f
b1010001 W
1$
#3330000
0$
#3348500
b1010010 W
b1010 f
1$
#3367000
0$
#3385500
b1011 f
b1010011 W
1$
#3404000
0$
#3422500
b1010100 W
b1100 f
1$
#3441000
0$
#3459500
b1101 f
b1010101 W
1$
#3478000
0$
#3496500
b1010110 W
b1110 f
1$
#3515000
0$
#3533500
b1111 f
b1010111 W
1$
#3552000
0$
#3570500
b1011000 W
b10000 f
1$
#3589000
0$
#3607500
b10001 f
b1011001 W
1$
#3626000
0$
#3644500
b1011010 W
b10010 f
1$
#3663000
0$
#3681500
b10011 f
b1011011 W
1$
#3700000
0$
#3718500
b1011100 W
b10100 f
1$
#3737000
0$
#3755500
b0 f
0e
b1011101 W
1$
#3774000
0$
#3792500
b1011110 W
b101 g
1$
#3811000
0$
#3829500
b110 g
b1011111 W
1$
#3848000
0$
#3866500
b1100000 W
b111 g
1$
#3885000
0$
#3903500
b1000 g
b1100001 W
1$
#3922000
0$
#3940500
b1100010 W
b1001 g
1$
#3959000
0$
#3977500
b1110 "
b1110 0
b1110 b
b0 a
b0 g
b1100011 W
1$
#3996000
0$
#4014500
b1100100 W
b1 g
1$
#4033000
0$
#4051500
b10 g
b1100101 W
1$
#4070000
0$
#4088500
b1100110 W
b11 g
1$
#4107000
0$
#4125500
b100 g
b1100111 W
1$
#4144000
0$
#4162500
b1101000 W
b101 g
1$
#4181000
0$
#4199500
b110 g
b1101001 W
1$
#4218000
0$
#4236500
b1101010 W
b111 g
1$
#4255000
0$
#4273500
b1000 g
b1101011 W
1$
#4292000
0$
#4310500
b1101100 W
b1001 g
1$
#4329000
0$
#4347500
b1101 "
b1101 0
b1101 b
b1 a
b0 g
b1101101 W
1$
#4366000
0$
#4384500
b1101110 W
b1 g
1$
#4403000
0$
#4421500
b10 g
b1101111 W
1$
#4440000
0$
#4458500
b1110000 W
b11 g
1$
#4477000
0$
#4495500
b100 g
b1110001 W
1$
#4514000
0$
#4532500
b1110010 W
b101 g
1$
#4551000
0$
#4569500
b110 g
b1110011 W
1$
#4588000
0$
#4606500
b1110100 W
b111 g
1$
#4625000
0$
#4643500
b1000 g
b1110101 W
1$
#4662000
0$
#4680500
b1110110 W
b1001 g
1$
#4699000
0$
#4717500
b1011 "
b1011 0
b1011 b
b10 a
b0 g
b1110111 W
1$
#4736000
0$
#4754500
b1111000 W
b1 g
1$
#4773000
0$
#4791500
b10 g
b1111001 W
1$
#4810000
0$
#4828500
b1111010 W
b11 g
1$
#4847000
0$
#4865500
b100 g
b1111011 W
1$
#4884000
0$
#4902500
b1111100 W
b101 g
1$
#4921000
0$
#4939500
b110 g
b1111101 W
1$
#4958000
0$
#4976500
b1111110 W
b111 g
1$
#4995000
0$
#5013500
b1000 g
b1111111 W
1$
#5032000
0$
#5050500
b10000000 W
b1001 g
1$
#5069000
0$
#5087500
b111 "
b111 0
b111 b
b11 a
b0 g
b10000001 W
1$
#5106000
0$
#5124500
b10000010 W
b1 g
1$
#5143000
0$
#5161500
b10 g
b10000011 W
1$
#5180000
0$
#5198500
b10000100 W
b11 g
1$
#5217000
0$
#5235500
b100 g
b10000101 W
1$
#5254000
0$
#5272500
b10000110 W
b101 g
1$
#5291000
0$
#5309500
b110 g
b10000111 W
1$
#5328000
0$
#5346500
b10001000 W
b111 g
1$
#5365000
0$
#5383500
b1000 g
b10001001 W
1$
#5402000
0$
#5420500
b10001010 W
b1001 g
1$
#5439000
0$
#5457500
b1110 "
b1110 0
b1110 b
b0 a
b0 g
b10001011 W
1$
#5476000
0$
#5494500
b10001100 W
b1 g
1$
#5513000
0$
#5531500
b10 g
b10001101 W
1$
#5550000
0$
#5568500
b10001110 W
b11 g
1$
#5587000
0$
#5605500
b100 g
b10001111 W
1$
#5624000
0$
#5642500
b10010000 W
b101 g
1$
#5661000
0$
#5679500
b110 g
b10010001 W
1$
#5698000
0$
#5716500
b10010010 W
b111 g
1$
#5735000
0$
#5753500
b1000 g
b10010011 W
1$
#5772000
0$
#5790500
b10010100 W
b1001 g
1$
#5809000
0$
#5827500
b1101 "
b1101 0
b1101 b
b1 a
b0 g
b10010101 W
1$
#5846000
0$
#5864500
b10010110 W
b1 g
b1101 l
b1101 h
b111 j
b10 i
b10 k
1$
#5883000
0$
#5901500
b10 g
b10010111 W
1$
#5920000
0$
#5938500
b10011000 W
b11 g
1$
#5957000
0$
#5975500
b100 g
b10011001 W
1$
#5994000
0$
#6012500
b10011010 W
b101 g
1$
#6031000
0$
#6049500
b110 g
b10011011 W
1$
#6068000
0$
#6086500
b10011100 W
b111 g
1$
#6105000
0$
#6123500
b1000 g
b10011101 W
1$
#6142000
0$
#6160500
b10011110 W
b1001 g
1$
#6179000
0$
#6197500
b1011 "
b1011 0
b1011 b
b10 a
b0 g
b10011111 W
1$
#6216000
0$
#6234500
b10100000 W
b1 g
1$
#6253000
0$
#6271500
b10 g
b10100001 W
1$
#6290000
0$
#6308500
b10100010 W
b11 g
1$
#6327000
0$
#6345500
b100 g
b10100011 W
1$
#6364000
0$
#6382500
b10100100 W
b101 g
1$
#6401000
0$
#6419500
b110 g
b10100101 W
1$
#6438000
0$
#6456500
b10100110 W
b111 g
1$
#6475000
0$
#6493500
b1000 g
b10100111 W
1$
#6512000
0$
#6530500
b10101000 W
b1001 g
1$
#6549000
0$
#6567500
b1101 %
b1101 '
b1101 Z
b111 "
b111 0
b111 b
b11 a
b0 g
b10101001 W
1$
#6586000
0$
#6604500
b10101010 W
b1 g
b1101 ^
1$
#6623000
0$
#6641500
b1101 _
b10 g
b10101011 W
1$
#6660000
0$
#6678500
1`
b10 c
b10101100 W
b1101 ]
b11 g
1$
#6697000
0$
#6715500
b100 g
1e
1/
b10 .
b10 d
b10101101 W
1$
#6734000
0$
#6752500
b1110 #
b1110 1
b1110 U
b1 +
b1 L
b10 ,
b10 K
b10 :
b10 O
b1 ;
b1 P
b10 2
b10 ?
b1 3
b1 @
b10101110 W
0/
1$
#6771000
0$
#6789500
b10101111 W
1$
#6808000
0$
#6826500
b10110000 W
1$
#6845000
0$
#6863500
b10110001 W
1$
#6882000
0$
#6900500
b10110010 W
1$
#6919000
0$
#6937500
b10110011 W
1$
#6956000
0$
#6974500
b10110100 W
1$
#6993000
0$
#7011500
b10110101 W
1$
#7030000
0$
#7048500
b10110110 W
1$
#7067000
0$
#7085500
b10110111 W
1$
#7104000
0$
#7122500
b10111000 W
1$
#7141000
0$
#7159500
b10111001 W
1$
#7178000
0$
#7196500
b10111010 W
1$
#7215000
0$
#7233500
b10111011 W
1$
#7252000
0$
#7270500
b10111100 W
1$
#7289000
0$
#7307500
b10111101 W
1$
#7326000
0$
#7344500
b10111110 W
1$
#7363000
0$
#7381500
b10111111 W
1$
#7400000
0$
#7418500
b11000000 W
1$
#7437000
0$
#7455500
b11000001 W
1$
#7474000
0$
#7492500
b11000010 W
1$
#7511000
0$
#7529500
b11000011 W
1$
#7548000
0$
#7566500
b11000100 W
1$
#7585000
0$
#7603500
b11000101 W
1$
#7622000
0$
#7640500
b11000110 W
1$
#7659000
0$
#7677500
b11000111 W
1$
#7696000
0$
#7714500
b11001000 W
1$
#7733000
0$
#7751500
b11001001 W
1$
#7770000
0$
#7788500
b11001010 W
1$
#7807000
0$
#7825500
b11001011 W
1$
#7844000
0$
#7862500
b11001100 W
1$
#7881000
0$
#7899500
b11001101 W
1$
#7918000
0$
#7936500
b11001110 W
1$
#7955000
0$
#7973500
b11001111 W
1$
#7992000
0$
#8010500
b11010000 W
1$
#8029000
0$
#8047500
b1111 ^
b11010001 W
b1111 %
b1111 '
b1111 Z
1$
#8066000
0$
#8084500
b11010010 W
b1111 _
1$
#8103000
0$
#8121500
0`
b0 c
b1111 ]
b11010011 W
1$
#8140000
0$
#8158500
b11010100 W
b1 f
1$
#8177000
0$
#8195500
b10 f
b11010101 W
1$
#8214000
0$
#8232500
b11010110 W
b11 f
1$
#8251000
0$
#8269500
b100 f
b11010111 W
1$
#8288000
0$
#8306500
b11011000 W
b101 f
1$
#8325000
0$
#8343500
b110 f
b11011001 W
1$
#8362000
0$
#8380500
b11011010 W
b111 f
1$
#8399000
0$
#8417500
b1000 f
b11011011 W
1$
#8436000
0$
#8454500
b11011100 W
b1001 f
1$
#8473000
0$
#8491500
b1010 f
b11011101 W
1$
#8510000
0$
#8528500
b11011110 W
b1011 f
1$
#8547000
0$
#8565500
b1100 f
b11011111 W
1$
#8584000
0$
#8602500
b11100000 W
b1101 f
1$
#8621000
0$
#8639500
b1110 f
b11100001 W
1$
#8658000
0$
#8676500
b11100010 W
b1111 f
1$
#8695000
0$
#8713500
b10000 f
b11100011 W
1$
#8732000
0$
#8750500
b11100100 W
b10001 f
1$
#8769000
0$
#8787500
b10010 f
b11100101 W
1$
#8806000
0$
#8824500
b11100110 W
b10011 f
1$
#8843000
0$
#8861500
b10100 f
b11100111 W
1$
#8880000
0$
#8898500
b11101000 W
b0 f
0e
1$
#8917000
0$
#8935500
b101 g
b11101001 W
1$
#8954000
0$
#8972500
b11101010 W
b110 g
1$
#8991000
0$
#9009500
b111 g
b11101011 W
1$
#9028000
0$
#9046500
b11101100 W
b1000 g
1$
#9065000
0$
#9083500
b1001 g
b11101101 W
1$
#9102000
0$
#9120500
b1110 "
b1110 0
b1110 b
b11101110 W
b0 a
b0 g
1$
#9139000
0$
#9157500
b1 g
b11101111 W
1$
#9176000
0$
#9194500
b11110000 W
b10 g
1$
#9213000
0$
#9231500
b11 g
b11110001 W
1$
#9250000
0$
#9268500
b11110010 W
b100 g
1$
#9287000
0$
#9305500
b101 g
b11110011 W
1$
#9324000
0$
#9342500
b11110100 W
b110 g
1$
#9361000
0$
#9379500
b111 g
b11110101 W
1$
#9398000
0$
#9416500
b11110110 W
b1000 g
1$
#9435000
0$
#9453500
b1001 g
b11110111 W
1$
#9472000
0$
#9490500
b1101 "
b1101 0
b1101 b
b11111000 W
b1 a
b0 g
1$
#9509000
0$
#9527500
b1 g
b11111001 W
1$
#9546000
0$
#9564500
b11111010 W
b10 g
1$
#9583000
0$
#9601500
b11 g
b11111011 W
1$
#9620000
0$
#9638500
b11111100 W
b100 g
1$
#9657000
0$
#9675500
b101 g
b11111101 W
1$
#9694000
0$
#9712500
b11111110 W
b110 g
1$
#9731000
0$
#9749500
b111 g
b11111111 W
1$
#9768000
0$
#9786500
b100000000 W
b1000 g
1$
#9805000
0$
#9823500
b1001 g
b100000001 W
1$
#9842000
0$
#9860500
b1011 "
b1011 0
b1011 b
b100000010 W
b10 a
b0 g
1$
#9879000
0$
#9897500
b1 g
b100000011 W
1$
#9916000
0$
#9934500
b100000100 W
b10 g
1$
#9953000
0$
#9971500
b11 g
b100000101 W
1$
#9990000
0$
#10008500
b100000110 W
b100 g
1$
#10027000
0$
#10045500
b101 g
b100000111 W
1$
#10064000
0$
#10082500
b100001000 W
b110 g
1$
#10101000
0$
#10119500
b111 g
b100001001 W
1$
#10138000
0$
#10156500
b100001010 W
b1000 g
1$
#10175000
0$
#10193500
b1001 g
b100001011 W
1$
#10212000
0$
#10230500
b111 "
b111 0
b111 b
b100001100 W
b11 a
b0 g
1$
#10249000
0$
#10267500
b1 g
b100001101 W
1$
#10286000
0$
#10304500
b100001110 W
b10 g
1$
#10323000
0$
#10341500
b11 g
b100001111 W
1$
#10360000
0$
#10378500
b100010000 W
b100 g
1$
#10397000
0$
#10415500
b101 g
b100010001 W
1$
#10434000
0$
#10452500
b100010010 W
b110 g
1$
#10471000
0$
#10489500
b111 g
b100010011 W
1$
#10508000
0$
#10526500
b100010100 W
b1000 g
1$
#10545000
0$
#10563500
b1001 g
b100010101 W
1$
#10582000
0$
#10600500
b1110 "
b1110 0
b1110 b
b100010110 W
b0 a
b0 g
1$
#10619000
0$
#10637500
b1 g
b100010111 W
1$
#10656000
0$
#10674500
b100011000 W
b10 g
1$
#10693000
0$
#10711500
b11 g
b100011001 W
1$
#10730000
0$
#10748500
b100011010 W
b100 g
1$
#10767000
0$
#10785500
b101 g
b100011011 W
1$
#10804000
0$
#10822500
b100011100 W
b110 g
1$
#10841000
0$
#10859500
b111 g
b100011101 W
1$
#10878000
0$
#10896500
b100011110 W
b1000 g
1$
#10915000
0$
#10933500
b1001 g
b100011111 W
1$
#10952000
0$
#10970500
b1101 "
b1101 0
b1101 b
b100100000 W
b1 a
b0 g
1$
#10989000
0$
#11007500
b1 g
b100100001 W
b1011 l
b1011 h
b111 j
b11 i
b11 k
1$
#11026000
0$
#11044500
b100100010 W
b10 g
1$
#11063000
0$
#11081500
b11 g
b100100011 W
1$
#11100000
0$
#11118500
b100100100 W
b100 g
1$
#11137000
0$
#11155500
b101 g
b100100101 W
1$
#11174000
0$
#11192500
b100100110 W
b110 g
1$
#11211000
0$
#11229500
b111 g
b100100111 W
1$
#11248000
0$
#11266500
b100101000 W
b1000 g
1$
#11285000
0$
#11303500
b1001 g
b100101001 W
1$
#11322000
0$
#11340500
b1011 "
b1011 0
b1011 b
b100101010 W
b10 a
b0 g
1$
#11359000
0$
#11377500
b1 g
b100101011 W
1$
#11396000
0$
#11414500
b100101100 W
b10 g
1$
#11433000
0$
#11451500
b11 g
b100101101 W
1$
#11470000
0$
#11488500
b100101110 W
b100 g
1$
#11507000
0$
#11525500
b101 g
b100101111 W
1$
#11544000
0$
#11562500
b100110000 W
b110 g
1$
#11581000
0$
#11599500
b111 g
b100110001 W
1$
#11618000
0$
#11636500
b100110010 W
b1000 g
1$
#11655000
0$
#11673500
b1001 g
b100110011 W
1$
#11692000
0$
#11710500
b1011 %
b1011 '
b1011 Z
b111 "
b111 0
b111 b
b100110100 W
b11 a
b0 g
1$
#11729000
0$
#11747500
b1011 ^
b1 g
b100110101 W
1$
#11766000
0$
#11784500
b100110110 W
b10 g
b1011 _
1$
#11803000
0$
#11821500
1`
b11 c
b11 g
b1011 ]
b100110111 W
1$
#11840000
0$
#11858500
b100111000 W
1e
1/
b11 .
b11 d
b100 g
1$
#11877000
0$
#11895500
b1110 #
b1110 1
b1110 U
b1 *
b1 M
b10 +
b10 L
b11 ,
b11 K
b11 :
b11 O
b10 ;
b10 P
b1 <
b1 Q
0/
b100111001 W
b11 2
b11 ?
b10 3
b10 @
b1 4
b1 A
1$
#11914000
0$
#11932500
b100111010 W
1$
#11951000
0$
#11969500
b100111011 W
1$
#11988000
0$
#12006500
b100111100 W
1$
#12025000
0$
#12043500
b100111101 W
1$
#12062000
0$
#12080500
b100111110 W
1$
#12099000
0$
#12117500
b100111111 W
1$
#12136000
0$
#12154500
b101000000 W
1$
#12173000
0$
#12191500
b101000001 W
1$
#12210000
0$
#12228500
b101000010 W
1$
#12247000
0$
#12265500
b101000011 W
1$
#12284000
0$
#12302500
b101000100 W
1$
#12321000
0$
#12339500
b101000101 W
1$
#12358000
0$
#12376500
b101000110 W
1$
#12395000
0$
#12413500
b101000111 W
1$
#12432000
0$
#12450500
b101001000 W
1$
#12469000
0$
#12487500
b101001001 W
1$
#12506000
0$
#12524500
b101001010 W
1$
#12543000
0$
#12561500
b101001011 W
1$
#12580000
0$
#12598500
b101001100 W
1$
#12617000
0$
#12635500
b101001101 W
1$
#12654000
0$
#12672500
b101001110 W
1$
#12691000
0$
#12709500
b101001111 W
1$
#12728000
0$
#12746500
b101010000 W
1$
#12765000
0$
#12783500
b101010001 W
1$
#12802000
0$
#12820500
b101010010 W
1$
#12839000
0$
#12857500
b101010011 W
1$
#12876000
0$
#12894500
b101010100 W
1$
#12913000
0$
#12931500
b101010101 W
1$
#12950000
0$
#12968500
b101010110 W
1$
#12987000
0$
#13005500
b101010111 W
1$
#13024000
0$
#13042500
b101011000 W
1$
#13061000
0$
#13079500
b101011001 W
1$
#13098000
0$
#13116500
b101011010 W
1$
#13135000
0$
#13153500
b101011011 W
1$
#13172000
0$
#13190500
b101011100 W
b1111 ^
b1111 %
b1111 '
b1111 Z
1$
#13209000
0$
#13227500
b1111 _
b101011101 W
1$
#13246000
0$
#13264500
0`
b0 c
b101011110 W
b1111 ]
1$
#13283000
0$
#13301500
b1 f
b101011111 W
1$
#13320000
0$
#13338500
b101100000 W
b10 f
1$
#13357000
0$
#13375500
b11 f
b101100001 W
1$
#13394000
0$
#13412500
b101100010 W
b100 f
1$
#13431000
0$
#13449500
b101 f
b101100011 W
1$
#13468000
0$
#13486500
b101100100 W
b110 f
1$
#13505000
0$
#13523500
b111 f
b101100101 W
1$
#13542000
0$
#13560500
b101100110 W
b1000 f
1$
#13579000
0$
#13597500
b1001 f
b101100111 W
1$
#13616000
0$
#13634500
b101101000 W
b1010 f
1$
#13653000
0$
#13671500
b1011 f
b101101001 W
1$
#13690000
0$
#13708500
b101101010 W
b1100 f
1$
#13727000
0$
#13745500
b1101 f
b101101011 W
1$
#13764000
0$
#13782500
b101101100 W
b1110 f
1$
#13801000
0$
#13819500
b1111 f
b101101101 W
1$
#13838000
0$
#13856500
b101101110 W
b10000 f
1$
#13875000
0$
#13893500
b10001 f
b101101111 W
1$
#13912000
0$
#13930500
b101110000 W
b10010 f
1$
#13949000
0$
#13967500
b10011 f
b101110001 W
1$
#13986000
0$
#14004500
b101110010 W
b10100 f
1$
#14023000
0$
#14041500
b0 f
0e
b101110011 W
1$
#14060000
0$
#14078500
b101110100 W
b101 g
1$
#14097000
0$
#14115500
b110 g
b101110101 W
1$
#14134000
0$
#14152500
b101110110 W
b111 g
1$
#14171000
0$
#14189500
b1000 g
b101110111 W
1$
#14208000
0$
#14226500
b101111000 W
b1001 g
1$
#14245000
0$
#14263500
b1110 "
b1110 0
b1110 b
b0 a
b0 g
b101111001 W
1$
#14282000
0$
#14300500
b101111010 W
b1 g
1$
#14319000
0$
#14337500
b10 g
b101111011 W
1$
#14356000
0$
#14374500
b101111100 W
b11 g
1$
#14393000
0$
#14411500
b100 g
b101111101 W
1$
#14430000
0$
#14448500
b101111110 W
b101 g
1$
#14467000
0$
#14485500
b110 g
b101111111 W
1$
#14504000
0$
#14522500
b110000000 W
b111 g
1$
#14541000
0$
#14559500
b1000 g
b110000001 W
1$
#14578000
0$
#14596500
b110000010 W
b1001 g
1$
#14615000
0$
#14633500
b1101 "
b1101 0
b1101 b
b1 a
b0 g
b110000011 W
1$
#14652000
0$
#14670500
b110000100 W
b1 g
1$
#14689000
0$
#14707500
b10 g
b110000101 W
1$
#14726000
0$
#14744500
b110000110 W
b11 g
1$
#14763000
0$
#14781500
b100 g
b110000111 W
1$
#14800000
0$
#14818500
b110001000 W
b101 g
1$
#14837000
0$
#14855500
b110 g
b110001001 W
1$
#14874000
0$
#14892500
b110001010 W
b111 g
1$
#14911000
0$
#14929500
b1000 g
b110001011 W
1$
#14948000
0$
#14966500
b110001100 W
b1001 g
1$
#14985000
0$
#15003500
b1011 "
b1011 0
b1011 b
b10 a
b0 g
b110001101 W
1$
#15022000
0$
#15040500
b110001110 W
b1 g
1$
#15059000
0$
#15077500
b10 g
b110001111 W
1$
#15096000
0$
#15114500
b110010000 W
b11 g
1$
#15133000
0$
#15151500
b100 g
b110010001 W
1$
#15170000
0$
#15188500
b110010010 W
b101 g
1$
#15207000
0$
#15225500
b110 g
b110010011 W
1$
#15244000
0$
#15262500
b110010100 W
b111 g
1$
#15281000
0$
#15299500
b1000 g
b110010101 W
1$
#15318000
0$
#15336500
b110010110 W
b1001 g
1$
#15355000
0$
#15373500
b111 "
b111 0
b111 b
b11 a
b0 g
b110010111 W
1$
#15392000
0$
#15410500
b110011000 W
b1 g
1$
#15429000
0$
#15447500
b10 g
b110011001 W
1$
#15466000
0$
#15484500
b110011010 W
b11 g
1$
#15503000
0$
#15521500
b100 g
b110011011 W
1$
#15540000
0$
#15558500
b110011100 W
b101 g
1$
#15577000
0$
#15595500
b110 g
b110011101 W
1$
#15614000
0$
#15632500
b110011110 W
b111 g
1$
#15651000
0$
#15669500
b1000 g
b110011111 W
1$
#15688000
0$
#15706500
b110100000 W
b1001 g
1$
#15725000
0$
#15743500
b1110 "
b1110 0
b1110 b
b0 a
b0 g
b110100001 W
1$
#15762000
0$
#15780500
b110100010 W
b1 g
1$
#15799000
0$
#15817500
b10 g
b110100011 W
1$
#15836000
0$
#15854500
b110100100 W
b11 g
1$
#15873000
0$
#15891500
b100 g
b110100101 W
1$
#15910000
0$
#15928500
b110100110 W
b101 g
1$
#15947000
0$
#15965500
b110 g
b110100111 W
1$
#15984000
0$
#16002500
b110101000 W
b111 g
1$
#16021000
0$
#16039500
b1000 g
b110101001 W
1$
#16058000
0$
#16076500
b110101010 W
b1001 g
1$
#16095000
0$
#16113500
b1101 "
b1101 0
b1101 b
b1 a
b0 g
b110101011 W
1$
#16132000
0$
