Proyecto_3/src/build/tb_system_top.vcd
$date
	Mon May 18 01:57:18 2026
$end
$version
	Icarus Verilog
$end
$timescale
	1ps
$end
$scope module tb_system_top $end
$var wire 7 ! seven [6:0] $end
$var wire 4 " filas [3:0] $end
$var wire 1 # done_o $end
$var wire 1 $ div_zero_o $end
$var wire 4 % anodo [3:0] $end
$var reg 1 & clk $end
$var reg 4 ' columnas [3:0] $end
$var reg 1 ( key_is_pressed $end
$var reg 4 ) pressed_col [3:0] $end
$var reg 4 * pressed_fila [3:0] $end
$var reg 1 + rst_n $end
$var reg 1 , select_i $end
$scope module dut $end
$var wire 1 & clk $end
$var wire 4 - columnas [3:0] $end
$var wire 1 + rst_n $end
$var wire 1 , select_i $end
$var wire 7 . seven [6:0] $end
$var wire 4 / remainder [3:0] $end
$var wire 6 0 quotient [5:0] $end
$var wire 4 1 key_value [3:0] $end
$var wire 1 2 key_valid $end
$var wire 1 3 input_valid $end
$var wire 4 4 filas [3:0] $end
$var wire 1 # done_o $end
$var wire 4 5 divisor [3:0] $end
$var wire 6 6 dividend [5:0] $end
$var wire 1 $ div_zero_o $end
$var wire 4 7 anodo [3:0] $end
$var parameter 32 8 KEYPAD_RELEASE_DELAY $end
$var parameter 32 9 KEYPAD_SCAN_DELAY $end
$scope module display_inst $end
$var wire 1 & clk $end
$var wire 1 + rst_n $end
$var wire 1 , select_i $end
$var wire 4 : tens [3:0] $end
$var wire 7 ; seven [6:0] $end
$var wire 6 < selected_result [5:0] $end
$var wire 4 = remainder_i [3:0] $end
$var wire 6 > quotient_i [5:0] $end
$var wire 4 ? ones [3:0] $end
$var wire 4 @ anodo [3:0] $end
$scope module bcd_inst $end
$var wire 4 A tens_o [3:0] $end
$var wire 4 B ones_o [3:0] $end
$var wire 6 C bin_i [5:0] $end
$upscope $end
$scope module mux_inst $end
$var wire 1 & clk $end
$var wire 4 D d0 [3:0] $end
$var wire 4 E d1 [3:0] $end
$var wire 4 F d2 [3:0] $end
$var wire 4 G d3 [3:0] $end
$var wire 1 + rst_n $end
$var wire 7 H seven [6:0] $end
$var wire 2 I sel [1:0] $end
$var reg 4 J anodo [3:0] $end
$var reg 4 K digit [3:0] $end
$var reg 16 L refresh_count [15:0] $end
$scope module decoder_inst $end
$var wire 4 M hex [3:0] $end
$var reg 7 N seg [6:0] $end
$upscope $end
$upscope $end
$scope module selector_inst $end
$var wire 1 , select_i $end
$var wire 6 O selected_result_o [5:0] $end
$var wire 4 P remainder_i [3:0] $end
$var wire 6 Q quotient_i [5:0] $end
$upscope $end
$upscope $end
$scope module divider_inst $end
$var wire 1 & clk $end
$var wire 1 + rst_n $end
$var wire 1 3 valid_i $end
$var wire 4 R remainder_comb [3:0] $end
$var wire 6 S quotient_comb [5:0] $end
$var wire 4 T divisor_i [3:0] $end
$var wire 6 U dividend_i [5:0] $end
$var wire 1 V div_zero_comb $end
$var reg 1 $ div_zero_o $end
$var reg 6 W dividend_reg [5:0] $end
$var reg 4 X divisor_reg [3:0] $end
$var reg 1 # done_o $end
$var reg 6 Y quotient_o [5:0] $end
$var reg 4 Z remainder_o [3:0] $end
$var reg 2 [ state_next [1:0] $end
$var reg 2 \ state_reg [1:0] $end
$scope module comb_inst $end
$var wire 6 ] dividend_i [5:0] $end
$var wire 4 ^ divisor_i [3:0] $end
$var wire 5 _ rem_shift_5 [4:0] $end
$var wire 5 ` rem_shift_4 [4:0] $end
$var wire 5 a rem_shift_3 [4:0] $end
$var wire 5 b rem_shift_2 [4:0] $end
$var wire 5 c rem_shift_1 [4:0] $end
$var wire 5 d rem_shift_0 [4:0] $end
$var wire 5 e rem_next_5 [4:0] $end
$var wire 5 f rem_next_4 [4:0] $end
$var wire 5 g rem_next_3 [4:0] $end
$var wire 5 h rem_next_2 [4:0] $end
$var wire 5 i rem_next_1 [4:0] $end
$var wire 5 j rem_next_0 [4:0] $end
$var wire 1 k q5 $end
$var wire 1 l q4 $end
$var wire 1 m q3 $end
$var wire 1 n q2 $end
$var wire 1 o q1 $end
$var wire 1 p q0 $end
$var wire 5 q divisor_ext [4:0] $end
$var wire 1 V div_zero_o $end
$var wire 5 r diff_5 [4:0] $end
$var wire 5 s diff_4 [4:0] $end
$var wire 5 t diff_3 [4:0] $end
$var wire 5 u diff_2 [4:0] $end
$var wire 5 v diff_1 [4:0] $end
$var wire 5 w diff_0 [4:0] $end
$var wire 1 x cout_5 $end
$var wire 1 y cout_4 $end
$var wire 1 z cout_3 $end
$var wire 1 { cout_2 $end
$var wire 1 | cout_1 $end
$var wire 1 } cout_0 $end
$var reg 6 ~ quotient_o [5:0] $end
$var reg 4 !" remainder_o [3:0] $end
$scope module stage_0 $end
$var wire 5 "" b_i [4:0] $end
$var wire 1 } cout_o $end
$var wire 5 #" diff_o [4:0] $end
$var wire 1 p q_bit_o $end
$var wire 5 $" r_i [4:0] $end
$var wire 5 %" row_r_next [4:0] $end
$var wire 5 &" row_diff [4:0] $end
$var wire 1 '" row_cout $end
$var wire 5 (" r_next_o [4:0] $end
$var parameter 32 )" WIDTH $end
$scope module row_inst $end
$var wire 1 *" accept_i $end
$var wire 5 +" b_i [4:0] $end
$var wire 5 ," r_i [4:0] $end
$var wire 5 -" r_next_o [4:0] $end
$var wire 5 ." diff_o [4:0] $end
$var wire 1 '" cout_o $end
$var wire 6 /" carry [5:0] $end
$var parameter 32 0" WIDTH $end
$scope begin gen_cells[0] $end
$var parameter 2 1" i $end
$scope module cell_inst $end
$var wire 1 *" accept_i $end
$var wire 1 2" b_i $end
$var wire 1 3" cin_i $end
$var wire 1 4" r_i $end
$var wire 1 5" r_next_o $end
$var wire 2 6" sum_result [1:0] $end
$var wire 1 7" diff_o $end
$var wire 1 8" cout_o $end
$upscope $end
$upscope $end
$scope begin gen_cells[1] $end
$var parameter 2 9" i $end
$scope module cell_inst $end
$var wire 1 *" accept_i $end
$var wire 1 :" b_i $end
$var wire 1 ;" cin_i $end
$var wire 1 <" r_i $end
$var wire 1 =" r_next_o $end
$var wire 2 >" sum_result [1:0] $end
$var wire 1 ?" diff_o $end
$var wire 1 @" cout_o $end
$upscope $end
$upscope $end
$scope begin gen_cells[2] $end
$var parameter 3 A" i $end
$scope module cell_inst $end
$var wire 1 *" accept_i $end
$var wire 1 B" b_i $end
$var wire 1 C" cin_i $end
$var wire 1 D" r_i $end
$var wire 1 E" r_next_o $end
$var wire 2 F" sum_result [1:0] $end
$var wire 1 G" diff_o $end
$var wire 1 H" cout_o $end
$upscope $end
$upscope $end
$scope begin gen_cells[3] $end
$var parameter 3 I" i $end
$scope module cell_inst $end
$var wire 1 *" accept_i $end
$var wire 1 J" b_i $end
$var wire 1 K" cin_i $end
$var wire 1 L" r_i $end
$var wire 1 M" r_next_o $end
$var wire 2 N" sum_result [1:0] $end
$var wire 1 O" diff_o $end
$var wire 1 P" cout_o $end
$upscope $end
$upscope $end
$scope begin gen_cells[4] $end
$var parameter 4 Q" i $end
$scope module cell_inst $end
$var wire 1 *" accept_i $end
$var wire 1 R" b_i $end
$var wire 1 S" cin_i $end
$var wire 1 T" r_i $end
$var wire 1 U" r_next_o $end
$var wire 2 V" sum_result [1:0] $end
$var wire 1 W" diff_o $end
$var wire 1 X" cout_o $end
$upscope $end
$upscope $end
$upscope $end
$upscope $end
$scope module stage_1 $end
$var wire 5 Y" b_i [4:0] $end
$var wire 1 | cout_o $end
$var wire 5 Z" diff_o [4:0] $end
$var wire 1 o q_bit_o $end
$var wire 5 [" r_i [4:0] $end
$var wire 5 \" row_r_next [4:0] $end
$var wire 5 ]" row_diff [4:0] $end
$var wire 1 ^" row_cout $end
$var wire 5 _" r_next_o [4:0] $end
$var parameter 32 `" WIDTH $end
$scope module row_inst $end
$var wire 1 a" accept_i $end
$var wire 5 b" b_i [4:0] $end
$var wire 5 c" r_i [4:0] $end
$var wire 5 d" r_next_o [4:0] $end
$var wire 5 e" diff_o [4:0] $end
$var wire 1 ^" cout_o $end
$var wire 6 f" carry [5:0] $end
$var parameter 32 g" WIDTH $end
$scope begin gen_cells[0] $end
$var parameter 2 h" i $end
$scope module cell_inst $end
$var wire 1 a" accept_i $end
$var wire 1 i" b_i $end
$var wire 1 j" cin_i $end
$var wire 1 k" r_i $end
$var wire 1 l" r_next_o $end
$var wire 2 m" sum_result [1:0] $end
$var wire 1 n" diff_o $end
$var wire 1 o" cout_o $end
$upscope $end
$upscope $end
$scope begin gen_cells[1] $end
$var parameter 2 p" i $end
$scope module cell_inst $end
$var wire 1 a" accept_i $end
$var wire 1 q" b_i $end
$var wire 1 r" cin_i $end
$var wire 1 s" r_i $end
$var wire 1 t" r_next_o $end
$var wire 2 u" sum_result [1:0] $end
$var wire 1 v" diff_o $end
$var wire 1 w" cout_o $end
$upscope $end
$upscope $end
$scope begin gen_cells[2] $end
$var parameter 3 x" i $end
$scope module cell_inst $end
$var wire 1 a" accept_i $end
$var wire 1 y" b_i $end
$var wire 1 z" cin_i $end
$var wire 1 {" r_i $end
$var wire 1 |" r_next_o $end
$var wire 2 }" sum_result [1:0] $end
$var wire 1 ~" diff_o $end
$var wire 1 !# cout_o $end
$upscope $end
$upscope $end
$scope begin gen_cells[3] $end
$var parameter 3 "# i $end
$scope module cell_inst $end
$var wire 1 a" accept_i $end
$var wire 1 ## b_i $end
$var wire 1 $# cin_i $end
$var wire 1 %# r_i $end
$var wire 1 &# r_next_o $end
$var wire 2 '# sum_result [1:0] $end
$var wire 1 (# diff_o $end
$var wire 1 )# cout_o $end
$upscope $end
$upscope $end
$scope begin gen_cells[4] $end
$var parameter 4 *# i $end
$scope module cell_inst $end
$var wire 1 a" accept_i $end
$var wire 1 +# b_i $end
$var wire 1 ,# cin_i $end
$var wire 1 -# r_i $end
$var wire 1 .# r_next_o $end
$var wire 2 /# sum_result [1:0] $end
$var wire 1 0# diff_o $end
$var wire 1 1# cout_o $end
$upscope $end
$upscope $end
$upscope $end
$upscope $end
$scope module stage_2 $end
$var wire 5 2# b_i [4:0] $end
$var wire 1 { cout_o $end
$var wire 5 3# diff_o [4:0] $end
$var wire 1 n q_bit_o $end
$var wire 5 4# r_i [4:0] $end
$var wire 5 5# row_r_next [4:0] $end
$var wire 5 6# row_diff [4:0] $end
$var wire 1 7# row_cout $end
$var wire 5 8# r_next_o [4:0] $end
$var parameter 32 9# WIDTH $end
$scope module row_inst $end
$var wire 1 :# accept_i $end
$var wire 5 ;# b_i [4:0] $end
$var wire 5 <# r_i [4:0] $end
$var wire 5 =# r_next_o [4:0] $end
$var wire 5 ># diff_o [4:0] $end
$var wire 1 7# cout_o $end
$var wire 6 ?# carry [5:0] $end
$var parameter 32 @# WIDTH $end
$scope begin gen_cells[0] $end
$var parameter 2 A# i $end
$scope module cell_inst $end
$var wire 1 :# accept_i $end
$var wire 1 B# b_i $end
$var wire 1 C# cin_i $end
$var wire 1 D# r_i $end
$var wire 1 E# r_next_o $end
$var wire 2 F# sum_result [1:0] $end
$var wire 1 G# diff_o $end
$var wire 1 H# cout_o $end
$upscope $end
$upscope $end
$scope begin gen_cells[1] $end
$var parameter 2 I# i $end
$scope module cell_inst $end
$var wire 1 :# accept_i $end
$var wire 1 J# b_i $end
$var wire 1 K# cin_i $end
$var wire 1 L# r_i $end
$var wire 1 M# r_next_o $end
$var wire 2 N# sum_result [1:0] $end
$var wire 1 O# diff_o $end
$var wire 1 P# cout_o $end
$upscope $end
$upscope $end
$scope begin gen_cells[2] $end
$var parameter 3 Q# i $end
$scope module cell_inst $end
$var wire 1 :# accept_i $end
$var wire 1 R# b_i $end
$var wire 1 S# cin_i $end
$var wire 1 T# r_i $end
$var wire 1 U# r_next_o $end
$var wire 2 V# sum_result [1:0] $end
$var wire 1 W# diff_o $end
$var wire 1 X# cout_o $end
$upscope $end
$upscope $end
$scope begin gen_cells[3] $end
$var parameter 3 Y# i $end
$scope module cell_inst $end
$var wire 1 :# accept_i $end
$var wire 1 Z# b_i $end
$var wire 1 [# cin_i $end
$var wire 1 \# r_i $end
$var wire 1 ]# r_next_o $end
$var wire 2 ^# sum_result [1:0] $end
$var wire 1 _# diff_o $end
$var wire 1 `# cout_o $end
$upscope $end
$upscope $end
$scope begin gen_cells[4] $end
$var parameter 4 a# i $end
$scope module cell_inst $end
$var wire 1 :# accept_i $end
$var wire 1 b# b_i $end
$var wire 1 c# cin_i $end
$var wire 1 d# r_i $end
$var wire 1 e# r_next_o $end
$var wire 2 f# sum_result [1:0] $end
$var wire 1 g# diff_o $end
$var wire 1 h# cout_o $end
$upscope $end
$upscope $end
$upscope $end
$upscope $end
$scope module stage_3 $end
$var wire 5 i# b_i [4:0] $end
$var wire 1 z cout_o $end
$var wire 5 j# diff_o [4:0] $end
$var wire 1 m q_bit_o $end
$var wire 5 k# r_i [4:0] $end
$var wire 5 l# row_r_next [4:0] $end
$var wire 5 m# row_diff [4:0] $end
$var wire 1 n# row_cout $end
$var wire 5 o# r_next_o [4:0] $end
$var parameter 32 p# WIDTH $end
$scope module row_inst $end
$var wire 1 q# accept_i $end
$var wire 5 r# b_i [4:0] $end
$var wire 5 s# r_i [4:0] $end
$var wire 5 t# r_next_o [4:0] $end
$var wire 5 u# diff_o [4:0] $end
$var wire 1 n# cout_o $end
$var wire 6 v# carry [5:0] $end
$var parameter 32 w# WIDTH $end
$scope begin gen_cells[0] $end
$var parameter 2 x# i $end
$scope module cell_inst $end
$var wire 1 q# accept_i $end
$var wire 1 y# b_i $end
$var wire 1 z# cin_i $end
$var wire 1 {# r_i $end
$var wire 1 |# r_next_o $end
$var wire 2 }# sum_result [1:0] $end
$var wire 1 ~# diff_o $end
$var wire 1 !$ cout_o $end
$upscope $end
$upscope $end
$scope begin gen_cells[1] $end
$var parameter 2 "$ i $end
$scope module cell_inst $end
$var wire 1 q# accept_i $end
$var wire 1 #$ b_i $end
$var wire 1 $$ cin_i $end
$var wire 1 %$ r_i $end
$var wire 1 &$ r_next_o $end
$var wire 2 '$ sum_result [1:0] $end
$var wire 1 ($ diff_o $end
$var wire 1 )$ cout_o $end
$upscope $end
$upscope $end
$scope begin gen_cells[2] $end
$var parameter 3 *$ i $end
$scope module cell_inst $end
$var wire 1 q# accept_i $end
$var wire 1 +$ b_i $end
$var wire 1 ,$ cin_i $end
$var wire 1 -$ r_i $end
$var wire 1 .$ r_next_o $end
$var wire 2 /$ sum_result [1:0] $end
$var wire 1 0$ diff_o $end
$var wire 1 1$ cout_o $end
$upscope $end
$upscope $end
$scope begin gen_cells[3] $end
$var parameter 3 2$ i $end
$scope module cell_inst $end
$var wire 1 q# accept_i $end
$var wire 1 3$ b_i $end
$var wire 1 4$ cin_i $end
$var wire 1 5$ r_i $end
$var wire 1 6$ r_next_o $end
$var wire 2 7$ sum_result [1:0] $end
$var wire 1 8$ diff_o $end
$var wire 1 9$ cout_o $end
$upscope $end
$upscope $end
$scope begin gen_cells[4] $end
$var parameter 4 :$ i $end
$scope module cell_inst $end
$var wire 1 q# accept_i $end
$var wire 1 ;$ b_i $end
$var wire 1 <$ cin_i $end
$var wire 1 =$ r_i $end
$var wire 1 >$ r_next_o $end
$var wire 2 ?$ sum_result [1:0] $end
$var wire 1 @$ diff_o $end
$var wire 1 A$ cout_o $end
$upscope $end
$upscope $end
$upscope $end
$upscope $end
$scope module stage_4 $end
$var wire 5 B$ b_i [4:0] $end
$var wire 1 y cout_o $end
$var wire 5 C$ diff_o [4:0] $end
$var wire 1 l q_bit_o $end
$var wire 5 D$ r_i [4:0] $end
$var wire 5 E$ row_r_next [4:0] $end
$var wire 5 F$ row_diff [4:0] $end
$var wire 1 G$ row_cout $end
$var wire 5 H$ r_next_o [4:0] $end
$var parameter 32 I$ WIDTH $end
$scope module row_inst $end
$var wire 1 J$ accept_i $end
$var wire 5 K$ b_i [4:0] $end
$var wire 5 L$ r_i [4:0] $end
$var wire 5 M$ r_next_o [4:0] $end
$var wire 5 N$ diff_o [4:0] $end
$var wire 1 G$ cout_o $end
$var wire 6 O$ carry [5:0] $end
$var parameter 32 P$ WIDTH $end
$scope begin gen_cells[0] $end
$var parameter 2 Q$ i $end
$scope module cell_inst $end
$var wire 1 J$ accept_i $end
$var wire 1 R$ b_i $end
$var wire 1 S$ cin_i $end
$var wire 1 T$ r_i $end
$var wire 1 U$ r_next_o $end
$var wire 2 V$ sum_result [1:0] $end
$var wire 1 W$ diff_o $end
$var wire 1 X$ cout_o $end
$upscope $end
$upscope $end
$scope begin gen_cells[1] $end
$var parameter 2 Y$ i $end
$scope module cell_inst $end
$var wire 1 J$ accept_i $end
$var wire 1 Z$ b_i $end
$var wire 1 [$ cin_i $end
$var wire 1 \$ r_i $end
$var wire 1 ]$ r_next_o $end
$var wire 2 ^$ sum_result [1:0] $end
$var wire 1 _$ diff_o $end
$var wire 1 `$ cout_o $end
$upscope $end
$upscope $end
$scope begin gen_cells[2] $end
$var parameter 3 a$ i $end
$scope module cell_inst $end
$var wire 1 J$ accept_i $end
$var wire 1 b$ b_i $end
$var wire 1 c$ cin_i $end
$var wire 1 d$ r_i $end
$var wire 1 e$ r_next_o $end
$var wire 2 f$ sum_result [1:0] $end
$var wire 1 g$ diff_o $end
$var wire 1 h$ cout_o $end
$upscope $end
$upscope $end
$scope begin gen_cells[3] $end
$var parameter 3 i$ i $end
$scope module cell_inst $end
$var wire 1 J$ accept_i $end
$var wire 1 j$ b_i $end
$var wire 1 k$ cin_i $end
$var wire 1 l$ r_i $end
$var wire 1 m$ r_next_o $end
$var wire 2 n$ sum_result [1:0] $end
$var wire 1 o$ diff_o $end
$var wire 1 p$ cout_o $end
$upscope $end
$upscope $end
$scope begin gen_cells[4] $end
$var parameter 4 q$ i $end
$scope module cell_inst $end
$var wire 1 J$ accept_i $end
$var wire 1 r$ b_i $end
$var wire 1 s$ cin_i $end
$var wire 1 t$ r_i $end
$var wire 1 u$ r_next_o $end
$var wire 2 v$ sum_result [1:0] $end
$var wire 1 w$ diff_o $end
$var wire 1 x$ cout_o $end
$upscope $end
$upscope $end
$upscope $end
$upscope $end
$scope module stage_5 $end
$var wire 5 y$ b_i [4:0] $end
$var wire 1 x cout_o $end
$var wire 5 z$ diff_o [4:0] $end
$var wire 1 k q_bit_o $end
$var wire 5 {$ r_i [4:0] $end
$var wire 5 |$ row_r_next [4:0] $end
$var wire 5 }$ row_diff [4:0] $end
$var wire 1 ~$ row_cout $end
$var wire 5 !% r_next_o [4:0] $end
$var parameter 32 "% WIDTH $end
$scope module row_inst $end
$var wire 1 #% accept_i $end
$var wire 5 $% b_i [4:0] $end
$var wire 5 %% r_i [4:0] $end
$var wire 5 &% r_next_o [4:0] $end
$var wire 5 '% diff_o [4:0] $end
$var wire 1 ~$ cout_o $end
$var wire 6 (% carry [5:0] $end
$var parameter 32 )% WIDTH $end
$scope begin gen_cells[0] $end
$var parameter 2 *% i $end
$scope module cell_inst $end
$var wire 1 #% accept_i $end
$var wire 1 +% b_i $end
$var wire 1 ,% cin_i $end
$var wire 1 -% r_i $end
$var wire 1 .% r_next_o $end
$var wire 2 /% sum_result [1:0] $end
$var wire 1 0% diff_o $end
$var wire 1 1% cout_o $end
$upscope $end
$upscope $end
$scope begin gen_cells[1] $end
$var parameter 2 2% i $end
$scope module cell_inst $end
$var wire 1 #% accept_i $end
$var wire 1 3% b_i $end
$var wire 1 4% cin_i $end
$var wire 1 5% r_i $end
$var wire 1 6% r_next_o $end
$var wire 2 7% sum_result [1:0] $end
$var wire 1 8% diff_o $end
$var wire 1 9% cout_o $end
$upscope $end
$upscope $end
$scope begin gen_cells[2] $end
$var parameter 3 :% i $end
$scope module cell_inst $end
$var wire 1 #% accept_i $end
$var wire 1 ;% b_i $end
$var wire 1 <% cin_i $end
$var wire 1 =% r_i $end
$var wire 1 >% r_next_o $end
$var wire 2 ?% sum_result [1:0] $end
$var wire 1 @% diff_o $end
$var wire 1 A% cout_o $end
$upscope $end
$upscope $end
$scope begin gen_cells[3] $end
$var parameter 3 B% i $end
$scope module cell_inst $end
$var wire 1 #% accept_i $end
$var wire 1 C% b_i $end
$var wire 1 D% cin_i $end
$var wire 1 E% r_i $end
$var wire 1 F% r_next_o $end
$var wire 2 G% sum_result [1:0] $end
$var wire 1 H% diff_o $end
$var wire 1 I% cout_o $end
$upscope $end
$upscope $end
$scope begin gen_cells[4] $end
$var parameter 4 J% i $end
$scope module cell_inst $end
$var wire 1 #% accept_i $end
$var wire 1 K% b_i $end
$var wire 1 L% cin_i $end
$var wire 1 M% r_i $end
$var wire 1 N% r_next_o $end
$var wire 2 O% sum_result [1:0] $end
$var wire 1 P% diff_o $end
$var wire 1 Q% cout_o $end
$upscope $end
$upscope $end
$upscope $end
$upscope $end
$upscope $end
$upscope $end
$scope module input_inst $end
$var wire 1 & clk $end
$var wire 1 + rst_n $end
$var wire 4 R% key_value_i [3:0] $end
$var wire 1 2 key_valid_i $end
$var wire 1 S% is_digit $end
$var wire 1 T% is_confirm $end
$var wire 1 U% is_clear $end
$var reg 7 V% dividend_next [6:0] $end
$var reg 6 W% dividend_o [5:0] $end
$var reg 7 X% dividend_temp [6:0] $end
$var reg 5 Y% divisor_next [4:0] $end
$var reg 4 Z% divisor_o [3:0] $end
$var reg 5 [% divisor_temp [4:0] $end
$var reg 2 \% state_reg [1:0] $end
$var reg 1 3 valid_o $end
$upscope $end
$scope module keypad_inst $end
$var wire 1 & clk $end
$var wire 4 ]% columnas [3:0] $end
$var wire 1 + rst_n $end
$var parameter 32 ^% RELEASE_DELAY $end
$var parameter 32 _% SCAN_DELAY $end
$var reg 4 `% col_read [3:0] $end
$var reg 4 a% columnas_ff1 [3:0] $end
$var reg 4 b% columnas_sync [3:0] $end
$var reg 1 c% detected $end
$var reg 2 d% fila_index [1:0] $end
$var reg 2 e% fila_read [1:0] $end
$var reg 4 f% filas [3:0] $end
$var reg 4 g% key_code [3:0] $end
$var reg 1 2 key_valid $end
$var reg 4 h% key_value [3:0] $end
$var reg 1 i% locked $end
$var reg 18 j% release_cnt [17:0] $end
$var reg 16 k% scan_cnt [15:0] $end
$upscope $end
$upscope $end
$scope task press_key $end
$upscope $end
$upscope $end
$enddefinitions $end
$comment Show the parameter values. $end
$dumpall
b110010 _%
b11110 ^%
b100 J%
b11 B%
b10 :%
b1 2%
b0 *%
b101 )%
b101 "%
b100 q$
b11 i$
b10 a$
b1 Y$
b0 Q$
b101 P$
b101 I$
b100 :$
b11 2$
b10 *$
b1 "$
b0 x#
b101 w#
b101 p#
b100 a#
b11 Y#
b10 Q#
b1 I#
b0 A#
b101 @#
b101 9#
b100 *#
b11 "#
b10 x"
b1 p"
b0 h"
b101 g"
b101 `"
b100 Q"
b11 I"
b10 A"
b1 9"
b0 1"
b101 0"
b101 )"
b110010 9
b11110 8
$end
#0
$dumpvars
b0 k%
b0 j%
0i%
b0 h%
b0 g%
b1110 f%
b0 e%
b0 d%
0c%
b1111 b%
b1111 a%
b1111 `%
b1111 ]%
b0 \%
b0 [%
b0 Z%
b0 Y%
b0 X%
b0 W%
b0 V%
0U%
0T%
1S%
b0 R%
1Q%
0P%
b10 O%
0N%
0M%
1L%
0K%
1I%
0H%
b10 G%
0F%
0E%
1D%
0C%
1A%
0@%
b10 ?%
0>%
0=%
1<%
0;%
19%
08%
b10 7%
06%
05%
14%
03%
11%
00%
b10 /%
0.%
0-%
1,%
0+%
b111111 (%
b0 '%
b0 &%
b0 %%
b0 $%
1#%
b0 !%
1~$
b0 }$
b0 |$
b0 {$
b0 z$
b0 y$
1x$
0w$
b10 v$
0u$
0t$
1s$
0r$
1p$
0o$
b10 n$
0m$
0l$
1k$
0j$
1h$
0g$
b10 f$
0e$
0d$
1c$
0b$
1`$
0_$
b10 ^$
0]$
0\$
1[$
0Z$
1X$
0W$
b10 V$
0U$
0T$
1S$
0R$
b111111 O$
b0 N$
b0 M$
b0 L$
b0 K$
1J$
b0 H$
1G$
b0 F$
b0 E$
b0 D$
b0 C$
b0 B$
1A$
0@$
b10 ?$
0>$
0=$
1<$
0;$
19$
08$
b10 7$
06$
05$
14$
03$
11$
00$
b10 /$
0.$
0-$
1,$
0+$
1)$
0($
b10 '$
0&$
0%$
1$$
0#$
1!$
0~#
b10 }#
0|#
0{#
1z#
0y#
b111111 v#
b0 u#
b0 t#
b0 s#
b0 r#
1q#
b0 o#
1n#
b0 m#
b0 l#
b0 k#
b0 j#
b0 i#
1h#
0g#
b10 f#
0e#
0d#
1c#
0b#
1`#
0_#
b10 ^#
0]#
0\#
1[#
0Z#
1X#
0W#
b10 V#
0U#
0T#
1S#
0R#
1P#
0O#
b10 N#
0M#
0L#
1K#
0J#
1H#
0G#
b10 F#
0E#
0D#
1C#
0B#
b111111 ?#
b0 >#
b0 =#
b0 <#
b0 ;#
1:#
b0 8#
17#
b0 6#
b0 5#
b0 4#
b0 3#
b0 2#
11#
00#
b10 /#
0.#
0-#
1,#
0+#
1)#
0(#
b10 '#
0&#
0%#
1$#
0##
1!#
0~"
b10 }"
0|"
0{"
1z"
0y"
1w"
0v"
b10 u"
0t"
0s"
1r"
0q"
1o"
0n"
b10 m"
0l"
0k"
1j"
0i"
b111111 f"
b0 e"
b0 d"
b0 c"
b0 b"
1a"
b0 _"
1^"
b0 ]"
b0 \"
b0 ["
b0 Z"
b0 Y"
1X"
0W"
b10 V"
0U"
0T"
1S"
0R"
1P"
0O"
b10 N"
0M"
0L"
1K"
0J"
1H"
0G"
b10 F"
0E"
0D"
1C"
0B"
1@"
0?"
b10 >"
0="
0<"
1;"
0:"
18"
07"
b10 6"
05"
04"
13"
02"
b111111 /"
b0 ."
b0 -"
b0 ,"
b0 +"
1*"
b0 ("
1'"
b0 &"
b0 %"
b0 $"
b0 #"
b0 ""
b0 !"
b0 ~
1}
1|
1{
1z
1y
1x
b0 w
b0 v
b0 u
b0 t
b0 s
b0 r
b0 q
1p
1o
1n
1m
1l
1k
b0 j
b0 i
b0 h
b0 g
b0 f
b0 e
b0 d
b0 c
b0 b
b0 a
b0 `
b0 _
b0 ^
b0 ]
b0 \
b0 [
b0 Z
b0 Y
b0 X
b0 W
1V
b0 U
b0 T
b0 S
b0 R
b0 Q
b0 P
b0 O
b1111110 N
b0 M
b0 L
b0 K
b1110 J
b0 I
b1111110 H
b0 G
b0 F
b0 E
b0 D
b0 C
b0 B
b0 A
b1110 @
b0 ?
b0 >
b0 =
b0 <
b1111110 ;
b0 :
b1110 7
b0 6
b0 5
b1110 4
03
02
b0 1
b0 0
b0 /
b1111110 .
b1111 -
0,
0+
b1111 *
b1111 )
0(
b1111 '
0&
b1110 %
0$
0#
b1110 "
b1111110 !
$end
#5000
1&
#10000
0&
#15000
1&
#20000
0&
#25000
1&
#30000
0&
#35000
1&
#40000
0&
#45000
1&
#50000
1(
b1011 )
b1011 *
1+
0&
#55000
b1 k%
b1 L
1&
#60000
0&
#65000
b10 L
b10 k%
1&
#70000
0&
#75000
b11 k%
b11 L
1&
#80000
0&
#85000
b100 L
b100 k%
1&
#90000
0&
#95000
b101 k%
b101 L
1&
#100000
0&
#105000
b110 L
b110 k%
1&
#110000
0&
#115000
b111 k%
b111 L
1&
#120000
0&
#125000
b1000 L
b1000 k%
1&
#130000
0&
#135000
b1001 k%
b1001 L
1&
#140000
0&
#145000
b1010 L
b1010 k%
1&
#150000
0&
#155000
b1011 k%
b1011 L
1&
#160000
0&
#165000
b1100 L
b1100 k%
1&
#170000
0&
#175000
b1101 k%
b1101 L
1&
#180000
0&
#185000
b1110 L
b1110 k%
1&
#190000
0&
#195000
b1111 k%
b1111 L
1&
#200000
0&
#205000
b10000 L
b10000 k%
1&
#210000
0&
#215000
b10001 k%
b10001 L
1&
#220000
0&
#225000
b10010 L
b10010 k%
1&
#230000
0&
#235000
b10011 k%
b10011 L
1&
#240000
0&
#245000
b10100 L
b10100 k%
1&
#250000
0&
#255000
b10101 k%
b10101 L
1&
#260000
0&
#265000
b10110 L
b10110 k%
1&
#270000
0&
#275000
b10111 k%
b10111 L
1&
#280000
0&
#285000
b11000 L
b11000 k%
1&
#290000
0&
#295000
b11001 k%
b11001 L
1&
#300000
0&
#305000
b11010 L
b11010 k%
1&
#310000
0&
#315000
b11011 k%
b11011 L
1&
#320000
0&
#325000
b11100 L
b11100 k%
1&
#330000
0&
#335000
b11101 k%
b11101 L
1&
#340000
0&
#345000
b11110 L
b11110 k%
1&
#350000
0&
#355000
b11111 k%
b11111 L
1&
#360000
0&
#365000
b100000 L
b100000 k%
1&
#370000
0&
#375000
b100001 k%
b100001 L
1&
#380000
0&
#385000
b100010 L
b100010 k%
1&
#390000
0&
#395000
b100011 k%
b100011 L
1&
#400000
0&
#405000
b100100 L
b100100 k%
1&
#410000
0&
#415000
b100101 k%
b100101 L
1&
#420000
0&
#425000
b100110 L
b100110 k%
1&
#430000
0&
#435000
b100111 k%
b100111 L
1&
#440000
0&
#445000
b101000 L
b101000 k%
1&
#450000
0&
#455000
b101001 k%
b101001 L
1&
#460000
0&
#465000
b101010 L
b101010 k%
1&
#470000
0&
#475000
b101011 k%
b101011 L
1&
#480000
0&
#485000
b101100 L
b101100 k%
1&
#490000
0&
#495000
b101101 k%
b101101 L
1&
#500000
0&
#505000
b101110 L
b101110 k%
1&
#510000
0&
#515000
b101111 k%
b101111 L
1&
#520000
0&
#525000
b110000 L
b110000 k%
1&
#530000
0&
#535000
b110001 k%
b110001 L
1&
#540000
0&
#545000
b1101 "
b1101 4
b1101 f%
b110010 L
b1 d%
b0 k%
1&
#550000
0&
#555000
b1 k%
b1 e%
b110011 L
1&
#560000
0&
#565000
b110100 L
b10 k%
1&
#570000
0&
#575000
b11 k%
b110101 L
1&
#580000
0&
#585000
b110110 L
b100 k%
1&
#590000
0&
#595000
b101 k%
b110111 L
1&
#600000
0&
#605000
b111000 L
b110 k%
1&
